7556:81069d53:Pokemon Trading Card Game (U) [C][!] [lowercase].zip
683:58314182:FFL2_DelocalizationAndRestoration.zip
7499:4c5b4547:Bionic_Commando_SRAM_Edition.zip
7499:3f4d5c84:Bionic_Commando_SRAM_Edition.zip
7499:41dbb5fb:Bionic_Commando_SRAM_Edition.zip
7212:a781c63c:Mario Tennis (USA) [All Nintendo Characters Unlocked v1.2].zip
7951:dee05370:M2NI.zip
6797:3011d5ca:amazing_penguin_dx_v1.zip
6687:5a6984c3:Minor Sprite Fix For Krang.zip
6687:ed8a73fb:Minor Sprite Fix For Krang.zip
6687:74078236:Minor Sprite Fix For Krang.zip
5885:4a38be7d:Trax - v1.1 - HACK TURN LEFT-RIGHT ips.rar
7610:7b9b2468:Towers_IPS.zip
6134:365bf43f:SD Hiryuu no Ken EX color hack.zip
7165:2b2d9868:Space Invasion - Protech Bug Eraser 0.1  [Radiant Nighte].7z
7165:fd1aa102:Space Invasion - Protech Bug Eraser 0.1  [Radiant Nighte].7z
7165:2a4efd32:Space Invasion - Protech Bug Eraser 0.1  [Radiant Nighte].7z
3245:b0ae803600e06cd1cc9a0d801f2511c9ecc50584:pbswap.zip
3245:34f377a6de2961fe16bfb854e0cebc7fdba7cf4b:pbswap.zip
3245:83d1c2420ae69d2a7ca9880c9b84f0ba948e39eb:pbswap.zip
3329:fa8360094cae37a838fabcfd333ae300:ghoul.7z
6708:23679231:King James Bible DX.zip
813:5bae3c04:Lufia3Complete_v30.zip
4714:b3a86164:Hyper Lode Runner Highscore Save Patch.zip
7592:40be3889:Wario Land 1 - Movement Adjustment 3.0.7z
8259:46df91ad:Tetris Rosy Retrospection DX v1.1.zip
8055:dab91c7a:Pac-Man Escape.zip
1129:5e4a61d3:Japanese portrait restoration for HAL Wrestling.zip
3354:fcf910e4d2f27bab40244eb7bf4aa2d3:bugfix.7z
7697:47e70e08:Mega Man World logo.zip
7697:2ea4b976:Mega Man World logo.zip
4192:1eed33c6:Pocket no Naka no Oukoku - Bugfix [v1.0].zip
6681:2bbbb54d:DuckTales - NES triangle Patch.ips.zip
5987:3a4d94d5:Mega Man Xtreme - Vile Name Patch (ft. Zero).zip
6159:492edb36:patch.zip
6112:a6499792:Konami GB Collection Vol.2 (Europe) [Autoboot Hacks].zip
5847:bcc18e24:Shadow Warriors (Half Life Hack) (Hammer Keyboard Studios) (Hacked by ry0g4_).7z
5106:52678ae8:FlyingDragonGaiden.zip
3319:69292ee6:samurai shodown - bugfix.zip
6371:9f64fb1c:School Fighter (AP fix).zip
4020:e43da090:darius_ii_v10.zip
6862:8903cc5f:DiddyKongPilot-2001Proto-GBA-ProperConv-1.0-saulfabreg.zip
5882:e56c35b1:Dragon Quest Monsters Delocalized.zip
7425:480d0259:Wario Land 3 - Golfless .rar
4488:d03e59aa:SuperMarioTrap.zip
7480:79804305:GatorGold_v1.zip
6752:c44a0f1e:Ultima - Runes of Virtue - Legend of Zelda Skin v1.0.zip
5924:cf647f4b:pokepicross_lower_penalty.zip
4346:7e32dc8b60413cfaa24f941691e545d2:Lastbible2-debug.zip
3785:e994b59b:Shantae (U) [C][!] dance bugfix.zip
7744:67303954:World Heroes 2 Jet U True SGB Turbo Mode.zip
7633:216e6aa1:CVA - Pentagram.zip
7633:203f8727:CVA - Pentagram.zip
8120:a089c656:Bomberman Quest - Item Switch 1.1.zip
6405:3945bc0d:dcgb1_speedhack.zip
3296:a6e685dc:legend of the river king - revision.zip
6866:2827e5d4:Donkey Kong Land 2 GBC Edition V1.2.zip
1274:0c042862:Kid Icarus - Journey of a Warrior.rar
902:23279c91:bof2gba_palette_fix.zip
4149:b681e243:Pac-Man GB - Redux.zip
7641:8875c8fe:cv2gb-subweapons.zip
7673:90ab047b:SMBD All-Stars Edition.zip
7789:abcea00d:mm4_ldx_rhdn_submition.zip
471:28d7e8d3:DKL3j.zip
6793:21848101:Terminator 2 (TECH-COM) (HK Studios) (Hacked by ry0g4_).7z
7840:518c2d2f:Turok - Battle of the Bionosaurs GB Stereo Restoration.zip
7604:203f8727:Castlevania - The Adventure DX.7z
8010:88c1b562:Harmony of Dissonance Doppelganger Boss Rush.zip
6781:9bd8815e:BombJackDx.zip
7001:f59cedea:Pipe Dream (USA) Highscore Save Patch by AlexiG.zip
8054:f533dc13:CRGX - Stat Changes 1.0.zip
7470:d06bba96:panepon-gb-US_and_EU.zip
3972:a7a2c27cb6fc2c6cf67eb8af2b99c612:MetalSlugGBC.rar
3972:a6051d0058be5b2f3be03c87e51efcf1:MetalSlugGBC.rar
3418:00733c77:Metafight EX (Backwards Compatability Patch).zip
8273:ee6f5188:Pokemon_Crystal_Recurved.zip
7587:f2f4bcca:yoshi_ldx_v1.0.zip
3615:e1d36a8c:blackthorne_gba_palette_restoration.zip
6634:df8b2b20:SRW2G_Hack.zip
7993:f0225dd0:Dr. Luigi.zip
8135:3800a387:The Legend of Zelda Oracle of Ages - Good Underwater Patches.zip
891:53f7bba1:REGBC_Cart_1_Bugfix_v1.0.7z
8275:7d527d62:Pokemon - Yellow Version + Pikachu's Beach.ips.zip
7836:6eda6a3a:Turok 2 - Seeds of Evil GBC Stereo Restoration.zip
7603:5a2651c78bb8a1d707e3c3af1f46fb64e2104198:crash1_gba_music_fix.7z
7609:b151509d:DuckTales 2 - Extended Version.zip
6107:7d890cd0:Faceball 2000 DX v1.0.zip
927:b38eb9de:zelda_ladx_fontimprovement_v12.zip
7213:edab3378:Donkey Kong SUMMER 1.0.zip
7520:a053b42e:DQ1+2_adjust.zip
6076:49dc0d37:DKL v1.01.zip
2753:2ebc40c2:Worms plus.zip
6113:8800f1c9:Konami GB Collection Vol.4 (Europe) [Autoboot Hacks].zip
7512:69989152:tetrisdx-easyaccess.zip
7819:dbef116c:WR Sturm.zip
4011:3f81986a:ProjectS11MusicFix.zip
761:30c26262:GBW3-FocusHack.zip
7653:ad9c17fb:cvleg-no-aircontrol.zip
7653:4825b25f:cvleg-no-aircontrol.zip
5211:e79d411a:SP_Improved_Cutscenes.rar
838:3e454710:ffl3_et_10.rar
7745:2d0c1073:Battle Arena Toshinden U True SGB Turbo Mode.zip
6998:492c0ebf:Mr. Driller (USA) Save Patch by AlexiG.zip
4051:41d277fe:dkc_gba_restoration_v1_1.zip
7815:72e6d21d:Mega Man V - Boss Vulnerability Changes 1.0.zip
7724:8dc07c35:Kirby's Dream Land 2 DX v1.1.zip
6487:e541acf1:Kirby 'n' (v1).zip
7665:ae37915058035df4ceedd72d709f91efb4878eff:Wario Land 2 - Open Level Select.7z
3489:f27294b7:Kid Dracula Restoration - GB Edition.zip
7220:508282d0:GB_Flintstones_King_Rock_Treasure_Island_Debug_Menu_Restoration.zip
8151:d1a65d74:Revelations - Last Bible.zip
2513:f1344b78:Unaltered Thief Sprites for Bonk's Revenge.zip
7522:21078c16:DQ III adjust.zip
7514:1da5834cd7cea711195cd8581614c5022da768b7:GQ_DoubleSpeedColorHack.zip
876:d6da8a1a:green_patch_3.0.zip
6682:d5ec24e4:SML2 Sound Improvment.zip
6522:13ad07b1:Centipede (USA) Highscore Save Patch.zip
6550:18c78b3a:LotMS-2023-10-31.zip
7181:c34d265e:ROCKMAN WORLD2 (Music Improvement Hack).zip
6510:5cc01586:AlleywayDx_v1.1.zip
5786:60cd3207:YTP_DoomII.zip
6230:1cc059a4:COTM Auto Dashing.zip
7124:8fedb6d8:Mega Man Xtreme 2 - Shared HP.zip
3898:141675d3:alteredspace_wavefix.zip
94:35536183:AOSFIX.zip
566:7d03727d:continue_hack_rev2.zip
866:9f7fdd53:Pokemon Red proud eyes edition V4.0 (PATCH).zip
909:46599031ef71117c587bd3666c326c07:wrh22012-103.zip
909:29366bc79094492456210aa7013e14ec:wrh22012-103.zip
6722:f93b73d9:DK King of Swing Remix.7z
7822:d7e9f5d7:The Legend of Zelda Oracle of Seasons - No Music.zip
5988:aabe61bb:F1 Pole Position GB - Ayrton Senna Name Patch.zip
4103:ab7bfdd5:DWM2 Ultimate v103.zip
6342:3beb7239:NoMorePinchTAYNPGB.zip
6342:b76c769b:NoMorePinchTAYNPGB.zip
6342:5ee45a4d:NoMorePinchTAYNPGB.zip
7147:82fca204:Mole Mania - Protech Bug Eraser 0.1  [Radiant Nighte].7z
7147:2c36c74c:Mole Mania - Protech Bug Eraser 0.1  [Radiant Nighte].7z
8266:6bde3c3e:Pokemon_Gold_Recurved.zip
8272:8ad48636:Pokemon_Silver_Recurved.zip
6541:d06b3f8a:Galaga&GalaxianDX_v1.1.zip
4899:58c641b3:GBADoom-PC-1.7.zip
7989:27e7fd09:Chessmaster_NiemannRumble_v1.0.zip
4286:f2d652ad:Mario's Picross X v1.zip
7264:119a0ab3d82fabbaff5949dacd6b77e20c7a8fb0:RPG Tkool DQ.zip
6079:31cb6526:Kirby's Pinball Land DX v1.1.zip
7965:e904484f:RMW3 - Weapon Speedup.zip
4990:11568e64:Trip World (J) - Casual Mode v1.0.zip
92:418203621b887caa090215d97e3f509b79affd3e:SML_New_GFX3.0.zip
7680:6c135820:DBAA 2.0.rar
464:dad6f6b4:PQHack2.zip
7622:ab5738a1:Harvest Moon GBC - Progress Diary.zip
8129:59ed370c:Super Chess Master (The Chessmaster modification) (1.0).zip
7165:2b2d9868:Space Invasion - Protech Bug Eraser 0.1  [Radiant Nighte].7z
7165:fd1aa102:Space Invasion - Protech Bug Eraser 0.1  [Radiant Nighte].7z
7165:2a4efd32:Space Invasion - Protech Bug Eraser 0.1  [Radiant Nighte].7z
838:3e454710:ffl3_et_10.rar
7993:f0225dd0:Dr. Luigi.zip
8266:6bde3c3e:Pokemon_Gold_Recurved.zip
7212:a781c63c:Mario Tennis (USA) [All Nintendo Characters Unlocked v1.2].zip
3329:fa8360094cae37a838fabcfd333ae300:ghoul.7z
5885:4a38be7d:Trax - v1.1 - HACK TURN LEFT-RIGHT ips.rar
4103:ab7bfdd5:DWM2 Ultimate v103.zip
5988:aabe61bb:F1 Pole Position GB - Ayrton Senna Name Patch.zip
6998:492c0ebf:Mr. Driller (USA) Save Patch by AlexiG.zip
876:d6da8a1a:green_patch_3.0.zip
6510:5cc01586:AlleywayDx_v1.1.zip
4990:11568e64:Trip World (J) - Casual Mode v1.0.zip
7522:21078c16:DQ III adjust.zip
2753:2ebc40c2:Worms plus.zip
7425:480d0259:Wario Land 3 - Golfless .rar
7512:69989152:tetrisdx-easyaccess.zip
6371:9f64fb1c:School Fighter (AP fix).zip
6487:e541acf1:Kirby 'n' (v1).zip
761:30c26262:GBW3-FocusHack.zip
8135:3800a387:The Legend of Zelda Oracle of Ages - Good Underwater Patches.zip
927:b38eb9de:zelda_ladx_fontimprovement_v12.zip
8055:dab91c7a:Pac-Man Escape.zip
5106:52678ae8:FlyingDragonGaiden.zip
1129:5e4a61d3:Japanese portrait restoration for HAL Wrestling.zip
7147:82fca204:Mole Mania - Protech Bug Eraser 0.1  [Radiant Nighte].7z
7147:2c36c74c:Mole Mania - Protech Bug Eraser 0.1  [Radiant Nighte].7z
891:53f7bba1:REGBC_Cart_1_Bugfix_v1.0.7z
92:418203621b887caa090215d97e3f509b79affd3e:SML_New_GFX3.0.zip
3785:e994b59b:Shantae (U) [C][!] dance bugfix.zip
7789:abcea00d:mm4_ldx_rhdn_submition.zip
7124:8fedb6d8:Mega Man Xtreme 2 - Shared HP.zip
6522:13ad07b1:Centipede (USA) Highscore Save Patch.zip
1274:0c042862:Kid Icarus - Journey of a Warrior.rar
7745:2d0c1073:Battle Arena Toshinden U True SGB Turbo Mode.zip
8275:7d527d62:Pokemon - Yellow Version + Pikachu's Beach.ips.zip
8272:8ad48636:Pokemon_Silver_Recurved.zip
7697:47e70e08:Mega Man World logo.zip
7697:2ea4b976:Mega Man World logo.zip
6079:31cb6526:Kirby's Pinball Land DX v1.1.zip
4149:b681e243:Pac-Man GB - Redux.zip
7213:edab3378:Donkey Kong SUMMER 1.0.zip
8129:59ed370c:Super Chess Master (The Chessmaster modification) (1.0).zip
7815:72e6d21d:Mega Man V - Boss Vulnerability Changes 1.0.zip
6076:49dc0d37:DKL v1.01.zip
7836:6eda6a3a:Turok 2 - Seeds of Evil GBC Stereo Restoration.zip
3972:a7a2c27cb6fc2c6cf67eb8af2b99c612:MetalSlugGBC.rar
3972:a6051d0058be5b2f3be03c87e51efcf1:MetalSlugGBC.rar
6405:3945bc0d:dcgb1_speedhack.zip
7724:8dc07c35:Kirby's Dream Land 2 DX v1.1.zip
5211:e79d411a:SP_Improved_Cutscenes.rar
4286:f2d652ad:Mario's Picross X v1.zip
566:7d03727d:continue_hack_rev2.zip
6113:8800f1c9:Konami GB Collection Vol.4 (Europe) [Autoboot Hacks].zip
7610:7b9b2468:Towers_IPS.zip
7653:ad9c17fb:cvleg-no-aircontrol.zip
7653:4825b25f:cvleg-no-aircontrol.zip
6550:18c78b3a:LotMS-2023-10-31.zip
4714:b3a86164:Hyper Lode Runner Highscore Save Patch.zip
5924:cf647f4b:pokepicross_lower_penalty.zip
3296:a6e685dc:legend of the river king - revision.zip
3898:141675d3:alteredspace_wavefix.zip
6107:7d890cd0:Faceball 2000 DX v1.0.zip
8259:46df91ad:Tetris Rosy Retrospection DX v1.1.zip
6634:df8b2b20:SRW2G_Hack.zip
5882:e56c35b1:Dragon Quest Monsters Delocalized.zip
4488:d03e59aa:SuperMarioTrap.zip
4192:1eed33c6:Pocket no Naka no Oukoku - Bugfix [v1.0].zip
7514:1da5834cd7cea711195cd8581614c5022da768b7:GQ_DoubleSpeedColorHack.zip
7520:a053b42e:DQ1+2_adjust.zip
6793:21848101:Terminator 2 (TECH-COM) (HK Studios) (Hacked by ry0g4_).7z
6797:3011d5ca:amazing_penguin_dx_v1.zip
7499:4c5b4547:Bionic_Commando_SRAM_Edition.zip
7499:3f4d5c84:Bionic_Commando_SRAM_Edition.zip
7499:41dbb5fb:Bionic_Commando_SRAM_Edition.zip
6681:2bbbb54d:DuckTales - NES triangle Patch.ips.zip
3319:69292ee6:samurai shodown - bugfix.zip
7744:67303954:World Heroes 2 Jet U True SGB Turbo Mode.zip
6687:5a6984c3:Minor Sprite Fix For Krang.zip
6687:ed8a73fb:Minor Sprite Fix For Krang.zip
6687:74078236:Minor Sprite Fix For Krang.zip
3418:00733c77:Metafight EX (Backwards Compatability Patch).zip
683:58314182:FFL2_DelocalizationAndRestoration.zip
813:5bae3c04:Lufia3Complete_v30.zip
7001:f59cedea:Pipe Dream (USA) Highscore Save Patch by AlexiG.zip
5847:bcc18e24:Shadow Warriors (Half Life Hack) (Hammer Keyboard Studios) (Hacked by ry0g4_).7z
4020:e43da090:darius_ii_v10.zip
5987:3a4d94d5:Mega Man Xtreme - Vile Name Patch (ft. Zero).zip
7609:b151509d:DuckTales 2 - Extended Version.zip
6866:2827e5d4:Donkey Kong Land 2 GBC Edition V1.2.zip
7633:216e6aa1:CVA - Pentagram.zip
7633:203f8727:CVA - Pentagram.zip
3354:fcf910e4d2f27bab40244eb7bf4aa2d3:bugfix.7z
4011:3f81986a:ProjectS11MusicFix.zip
7592:40be3889:Wario Land 1 - Movement Adjustment 3.0.7z
7604:203f8727:Castlevania - The Adventure DX.7z
7470:d06bba96:panepon-gb-US_and_EU.zip
7220:508282d0:GB_Flintstones_King_Rock_Treasure_Island_Debug_Menu_Restoration.zip
6134:365bf43f:SD Hiryuu no Ken EX color hack.zip
8273:ee6f5188:Pokemon_Crystal_Recurved.zip
471:28d7e8d3:DKL3j.zip
3245:b0ae803600e06cd1cc9a0d801f2511c9ecc50584:pbswap.zip
3245:34f377a6de2961fe16bfb854e0cebc7fdba7cf4b:pbswap.zip
3245:83d1c2420ae69d2a7ca9880c9b84f0ba948e39eb:pbswap.zip
8120:a089c656:Bomberman Quest - Item Switch 1.1.zip
7673:90ab047b:SMBD All-Stars Edition.zip
6708:23679231:King James Bible DX.zip
7951:dee05370:M2NI.zip
6682:d5ec24e4:SML2 Sound Improvment.zip
2513:f1344b78:Unaltered Thief Sprites for Bonk's Revenge.zip
866:9f7fdd53:Pokemon Red proud eyes edition V4.0 (PATCH).zip
464:dad6f6b4:PQHack2.zip
8151:d1a65d74:Revelations - Last Bible.zip
7665:ae37915058035df4ceedd72d709f91efb4878eff:Wario Land 2 - Open Level Select.7z
7965:e904484f:RMW3 - Weapon Speedup.zip
6781:9bd8815e:BombJackDx.zip
7264:119a0ab3d82fabbaff5949dacd6b77e20c7a8fb0:RPG Tkool DQ.zip
3489:f27294b7:Kid Dracula Restoration - GB Edition.zip
7641:8875c8fe:cv2gb-subweapons.zip
7480:79804305:GatorGold_v1.zip
7622:ab5738a1:Harvest Moon GBC - Progress Diary.zip
6159:492edb36:patch.zip
6752:c44a0f1e:Ultima - Runes of Virtue - Legend of Zelda Skin v1.0.zip
7822:d7e9f5d7:The Legend of Zelda Oracle of Seasons - No Music.zip
7181:c34d265e:ROCKMAN WORLD2 (Music Improvement Hack).zip
6541:d06b3f8a:Galaga&GalaxianDX_v1.1.zip
7556:81069d53:Pokemon Trading Card Game (U) [C][!] [lowercase].zip
6342:3beb7239:NoMorePinchTAYNPGB.zip
6342:b76c769b:NoMorePinchTAYNPGB.zip
6342:5ee45a4d:NoMorePinchTAYNPGB.zip
6112:a6499792:Konami GB Collection Vol.2 (Europe) [Autoboot Hacks].zip
4346:7e32dc8b60413cfaa24f941691e545d2:Lastbible2-debug.zip
7840:518c2d2f:Turok - Battle of the Bionosaurs GB Stereo Restoration.zip
7587:f2f4bcca:yoshi_ldx_v1.0.zip
7368:ffacf993:War Gods (USA) - Cheat menu in Options.zip
911:b6330846:Spectrum.zip
7493:2d4f8f1b:Mickey's Speedway USA (USA) - Secret GBC character unlocked.zip
5122:b428d8a7:Majora's Mask Redux.zip
7611:a7f5cd7e:Sweet Training V1.0.2.zip
950:0b561fba:F-Zero UchiX ~Side B~.7z
7394:3db8130e:Deadly Arts (USA) - Secret characters unlocked.zip
7123:72f66f05:Pokemon Stadium FUSION patch.rar
8188:ad429961:Tooty Adventure V1.0.5.rar
539:366ed851:40Winks.zip
8251:68446ad4:perfect_dark_unlock_everything.zip
7395:aaeb492b1e538af65a3544a97240675ef438a04f:Killer Instinct Gold (USA) (Rev B) - Secret character, extra costume colors, extra options unlocked.zip
8074:4d60abe5:Mario Party (USA) - Mambo Music insertion.zip
7350:dbfd5a53:Duke Nukem 64 (USA) - Coop up to 4 players.zip
7386:3fa647dd:Clay Fighter 63 1-3 (USA) - Secret characters and cheat menu unlocked.zip
8132:434389c1:Krazy Racers 64 [v1] (U) [!].rar
7372:761f39d1:Quake 64 (USA) - Debug menu in Options.zip
8179:e6651803:Costume Corrections for Virtual Pro Wrestling 64.zip
5297:2aa6d2a1:Shiren2(J)_Shuku!20shunen!_v1.00.z64.ppf.zip
7354:d2a363a6:Mace - The Dark Age (USA) - Ultimate Edition.zip
7017:d44b4fc6:DK64 Ok Edition.zip
4771:a9998e09:pokesta2-debugmenu-v1.zip
4771:cbc3b935:pokesta2-debugmenu-v1.zip
7381:b2cbae58:Robotron 64 (USA) - Level select in Setup.zip
6365:b7445ddc:MP3StarStruck_V1.0.zip
7364:83fd222f:Dark Rift (USA) - Secret characters unlocked.zip
6591:70fbc3b8:Economical_SRW64.zip
6591:85df2771:Economical_SRW64.zip
7521:3502dbbe:Mystical Ninja 2 Starring Goemon (Europe) (En,Fr,De) - 4-Player coop unlocked.zip
7950:06b58673f7d31c56f8fe8186e86f6bd6:Castlevania (USA) (Rev 2).zip
7488:2fc4c216:Mario Golf (USA) - GBC characters unlocked.zip
873:3ce60709:SM Star Road Final (PPF).zip
8274:724ecae7:Getter Love!! Cho Renai Party Game (J) Sound Test.7z
7446:483129aa:Rakuga Kids - Secret characters and extra options unlocked.zip
7446:b9e53b06:Rakuga Kids - Secret characters and extra options unlocked.zip
7897:1d3a17b5:doom64.zip
7353:434de656:Clay Fighter - Sculptor's Cut (USA) - Secret characters unlocked.zip
711:b5932174:Jet Force Gemini Trainer.7z
7432:10cc5f15:CyberTiger (USA) - Secret characters unlocked.zip
7447:d75b45c6:merrow_frenchvanilla_48.zip
3719:63042e36:SpaceStation Silicon Valley (USA, Europe, Japan) [oz].zip
3719:a606e8ae:SpaceStation Silicon Valley (USA, Europe, Japan) [oz].zip
3719:e32d9e7b:SpaceStation Silicon Valley (USA, Europe, Japan) [oz].zip
3719:dcec9f8a:SpaceStation Silicon Valley (USA, Europe, Japan) [oz].zip
561:a05aea85:Lycanthropy.rar
5064:9a3258d7:DukeNukemZeroHourUnCut.zip
5064:ea82f037:DukeNukemZeroHourUnCut.zip
5064:7ecdfb28:DukeNukemZeroHourUnCut.zip
7370:5acca298:Diddy Kong Racing (USA) (En,Fr) (Rev A) - Secret characters unlocked and all cheats.zip
7360:11f2488b21f9f7185c25905dd02c2955c35ad5c1:Mortal Kombat Trilogy (USA) (Rev B) - Secret characters and extra options unlocked.zip
7359:7614ee0d:Rampage 2 - Universal Tour (USA) - Ultimate Edition.zip
7902:cd16c529:MoT_Remastered_OoT_Full_Romhack_patch.zip
6604:7e3ba9fd:MetalForceMapperHacks.zip
6604:ec6d910e:MetalForceMapperHacks.zip
5368:7bf82c80:Zyuranger Flashless Hack.zip
5368:516b2412:Zyuranger Flashless Hack.zip
2622:26d3082c:Joe & Mac improvement V1_0.rar
2376:dcc6e469:Super Glove Ball (J).zip
6648:b6c0718b:Tetris2MoreBattleRounds.zip
6648:0dd5bb0c:Tetris2MoreBattleRounds.zip
7208:5bd50be6:Juancho(toki).rar
7208:7fb74a43:Juancho(toki).rar
6013:7d51a6dc:Cliffhanger (U) [no-dim].zip
6013:57c2ae4e:Cliffhanger (U) [no-dim].zip
1417:c0d823ed:Graros (Seicross Hack).rar
8230:b99394c3:Battle of Olympus - Jump from Stairs.zip
8230:6b53006a:Battle of Olympus - Jump from Stairs.zip
6203:86cefc12:Yie_Ar_Kung-Fu_(J)_control_hack_by_Guyver.zip
776:cd4bf911:Lode_Runner_~Rebuilt~.zip
4900:26f900c5:patch-names.zip
4900:15f0d3f1:patch-names.zip
439:e50ad737:biommc5.zip
7766:f9282f28:Marble Madness (USA) - Reduced Flashing.zip
7209:d9748b92:EarthwormJim.rar
7209:b9aa4eeb:EarthwormJim.rar
5482:dc87f63d:Abadox - The Deadly Inner War - Color hack.zip
5482:b134d713:Abadox - The Deadly Inner War - Color hack.zip
3399:abb83b0f:dbofm.rar
6361:ccd575a1:Dragon Fighter (DHE) (HK-Studios) (Created by ry0g4_).7z
6361:a166548f:Dragon Fighter (DHE) (HK-Studios) (Created by ry0g4_).7z
5024:d71252b9:cobra_kai_ips.zip
5024:983948a5:cobra_kai_ips.zip
4218:11ff7b0e:pooyan__enhanced__ips.zip
4218:7099eac7:pooyan__enhanced__ips.zip
5908:4b849368:Jungle Book, The (U) (palette improvement).zip
5908:61179bfa:Jungle Book, The (U) (palette improvement).zip
6796:a4958020:Super Pitfall MMC5 Patch+Compact-Mapper v1.0.rar
6796:979c5314:Super Pitfall MMC5 Patch+Compact-Mapper v1.0.rar
8045:a0f7027d:DD2 Rise of the Elite complete.rar
8045:8a640aef:DD2 Rise of the Elite complete.rar
6538:361729fa:PizzaPopMMC3.zip
6538:49da2f76:PizzaPopMMC3.zip
8236:6d72c53a:Tetris Sherlock Holmes (USA).rar
8236:1394f57e:Tetris Sherlock Holmes (USA).rar
923:d16a502d0125f23cc3d980ddc6b6f2e8:Castlevania III Rebalanced.ips.7z
1102:66bdd61f:Makai Island Restoration.zip
6404:d5f95da7:Puroresu.zip
6404:e6f08e93:Puroresu.zip
6041:abb7157e:F-1 Sensation (J) SRAM save hack.zip
6041:81241dec:F-1 Sensation (J) SRAM save hack.zip
6306:f7fbb9cb:Ys - Title Screen Hack v1.0b.zip
6306:92547f1c:Ys - Title Screen Hack v1.0b.zip
6407:b27de2d8:More Fair Outdoor Sections 1.0.zip
6407:817431ec:More Fair Outdoor Sections 1.0.zip
5940:f033b827:Solomon no Kagi 2 - Kitsune Attacks!.zip
5940:eee6314e:Solomon no Kagi 2 - Kitsune Attacks!.zip
6396:4916d0a9:IceHockey_ja.zip
6396:ae64ca77:IceHockey_ja.zip
3142:1dfc3d35:xiao_ma_li_palette_fix.rar
3142:fa8e27eb:xiao_ma_li_palette_fix.rar
3119:82b8b8be:Wits (J) [!] [hM04].zip
627:2b30af5c:burning_spaceship_-_galg.rar
4012:7434dc82:WCW Master to Andre the Giant.zip
4012:5ea7d410:WCW Master to Andre the Giant.zip
3509:f2988a21:Super Parseean (J).rar
3400:9134ada0:Bandit Kings.7z
3400:2d287f9e:Bandit Kings.7z
3400:9134ada0:Bandit Kings.7z
7226:131e6617:Talui_Adventure_4.zip
7226:d56ed9fc:Talui_Adventure_4.zip
6033:4724713d:Qix (U) [no-dim].zip
6033:95e4e594:Qix (U) [no-dim].zip
2802:94dab06a:Nekketsu Kouha - Kunio Kun (J).zip
1848:8af9b095:Silk 2 (Silkworm Hack).rar
6307:b202a98d:Robo Warrior - Bomber King Edition.zip
6307:810b7ab9:Robo Warrior - Bomber King Edition.zip
6395:113c2147:Hikaru no Go.zip
6395:9c053f24:Hikaru no Go.zip
5187:2ed79b73:StarTropics [MMC3].zip
5187:ab44129c:StarTropics [MMC3].zip
8037:33963d30:Toukon Club - Color Hack.zip
8037:ea3e78dd:Toukon Club - Color Hack.zip
1627:5128a451:PS2ff.zip
2613:1ad30965:Magic Dragon - R-TYPE EX 10-03-21.rar
3117:3f42a1cc:Puyo Puyo (J) [hM04].zip
6212:2fe20d79:Flintstones Dino and Hoppy - auto ledgegrab.zip
7210:e82f44cf:Little League Baseball - Championship Series (DMC Buzz Fix).zip
7210:859c65e1:Little League Baseball - Championship Series (DMC Buzz Fix).zip
6071:43c7e445:PoP2_hack_beta_77.rar
6071:70ce3771:PoP2_hack_beta_77.rar
930:2ace2f1b:DWP Revial v.05.rar
5234:e7e52f44:SFIVver11.rar
2626:0c045fb9:Tower of Druaga - AC Mod.rar
6384:4258202b:Nazo no Kabe.zip
6384:81af4af9:Nazo no Kabe.zip
7962:b534eb48:Legacy of the Wizard (USA) - Reduced Flashing.zip
7962:f181c021:Legacy of the Wizard (USA) - Reduced Flashing.zip
5365:46d9d53d:dragon_ball_-_dragons_mystery_ips.zip
5365:9552e8df:dragon_ball_-_dragons_mystery_ips.zip
986:3337ec46:peach_cream.zip
3551:fae5a5c0:Eienland_-_Meikyuu_no_Fukkoku_(J).rar
2630:b3cf12b8:Starforce - Title Mods.rar
7048:dbb3bc30:Easy Options with Shredder & Splinter Color Change.zip
7048:bb6d7949:Easy Options with Shredder & Splinter Color Change.zip
4105:4f34fd97:swatfix.rar
999:f6157b6bc875921d6f4ad028a0bfe703:Earth Bound (Zero Removal).zip
999:56a5a2cff876a3970573df3262c90453:Earth Bound (Zero Removal).zip
7404:22fbd0e9:Fast Armageddon.7z
7404:8eef8b76:Fast Armageddon.7z
629:fa43146b:TGL-Secret33.zip
4305:dc84deb0:Ninja Gaiden VI - The Beginning (U).zip
4305:3d1c4894:Ninja Gaiden VI - The Beginning (U).zip
7448:3ae8289a:Dig Dug Arcade Edition.zip
7448:b174b680:Dig Dug Arcade Edition.zip
6581:1d60732e:palette fix patch.zip
6581:edcf1b71:palette fix patch.zip
822:4644085e:Duck_Hunt_-_moon_walk.zip
5294:d5e7419a:Kung-Fu Heroes - Ninja Boy Edition.zip
8040:87ed54aa:Ghosts 'n Goblins - Map Skip.zip
8040:b4e4879e:Ghosts 'n Goblins - Map Skip.zip
8041:b55d5747:adventures_of_rad_gravity_new_music_v0.3.7z
8041:d8ee7669:adventures_of_rad_gravity_new_music_v0.3.7z
5017:659021a1:nkhc.zip
5017:4f032933:nkhc.zip
8093:426a7b5a:3-D Worldrunner (Pulse Buzz Fix).zip
8093:e6a477b2:3-D Worldrunner (Pulse Buzz Fix).zip
3686:3b90d11e:ImpPacman.zip
5855:c9ffbbdb:Teenage Mutant Ninja Turtles II - Options Menu - nesrocks - v113.zip
5855:a9217ea2:Teenage Mutant Ninja Turtles II - Options Menu - nesrocks - v113.zip
859:1701b08d:airball_(later_beta) (Direction Fix).zip
7612:1a2838dc:HappyCamperRestored.zip
7612:26b48204:HappyCamperRestored.zip
5240:76663e66:Power Blade R2RKMF Edition v1.2.zip
5240:5cf536f4:Power Blade R2RKMF Edition v1.2.zip
7452:8c4f37e2:Minna no Taabou no Nakayoshi Daisakusen (Reset Fix).zip
7452:555042b3:Minna no Taabou no Nakayoshi Daisakusen (Reset Fix).zip
4517:29b42609:Protoman.zip
4517:03272e9b:Protoman.zip
2551:b3783f2a:Rygar MMC3.zip
5658:6975d3cd:LA LIGA MEXICANA 2021 - ROMHACK.zip
5658:803b9979:LA LIGA MEXICANA 2021 - ROMHACK.zip
3194:91d23aa8 caee598e 6f656d3e f5fcb:gnez.rar
7397:6d5953a8:A bootleg Christmas.zip
7397:395d1793:A bootleg Christmas.zip
6880:19ad4071:Q-Bert Arcade Sprites.zip
6880:c0b23520:Q-Bert Arcade Sprites.zip
6947:8f53520e:Heavy-Barrel_(U)_[Hack-Voice-Sampling].zip
6947:34eab034:Heavy-Barrel_(U)_[Hack-Voice-Sampling].zip
3525:e00264b5:Ikkyu.rar
4589:32bc3c31:DK Jr.+Lesson-Crowned-IPS.zip
4589:50a1b3fe:DK Jr.+Lesson-Crowned-IPS.zip
5568:1587bc5f:Buzz and Waldog (U) (Proto) (Suzi Hack 1.2).zip
5568:ccc03440:Buzz and Waldog (U) (Proto) (Suzi Hack 1.2).zip
5603:c6d266af:music_hack.7z
5603:a60ca3d6:music_hack.7z
5481:2bf61c53:Chip and Dale 4 - Chip is going to the rescue v1.0fix.7z
2258:65eec6e7:Die Hard (Special).zip
6956:149e367f:Lion King, The (Europe) - color fix.zip
6956:89984244:Lion King, The (Europe) - color fix.zip
6397:c0056ceb:Volleyball_ja.zip
6397:27777635:Volleyball_ja.zip
5899:d6c81006:JMFSv5.1.zip
5899:708ea2be:JMFSv5.1.zip
2629:e9b1dfad:terracresta.zip
2629:ae92a014:terracresta.zip
8071:307d0fc4:Megaman_Plus_Limited_in_Edoropolis_(Easy)_MM9_Music_MIX.7z
8071:5dce2eea:Megaman_Plus_Limited_in_Edoropolis_(Easy)_MM9_Music_MIX.7z
546:c3c75c6e:Cross Fire.zip
3510:f7c8f42d:myonmyon.rar
6209:210a2bbb:Xevious_(U)_Hard_Mode_hack_by_Guyver.zip
6209:dfd70e27:Xevious_(U)_Hard_Mode_hack_by_Guyver.zip
82:83be000c:bc99.zip
6270:330f53ee:Biff Gunman (Wild Gunman NES Hack).zip
6270:5112dc21:Biff Gunman (Wild Gunman NES Hack).zip
7873:4396e4cb:Juancho Adventures.rar
7873:5581e835:Juancho Adventures.rar
3383:6ed31ccd:chips_challenge_fix.zip
2758:ac273c14:alf_escapes__ips.zip
304:0ec30976:sg-save.zip
808:92847456:Dizzy the Adventurer Sound Fix.zip
4342:62fa9f0a:dbz1nes_3xBP.zip
3935:dd119b43:Fantasy Zone Neo Classic.zip
3935:10119e6b:Fantasy Zone Neo Classic.zip
2688:0e5f9ba7:Mario + Yoshi MMC1 to MMC3.rar
8200:92bed9d7:DrMario_InputFixes.zip
8200:de581355:DrMario_InputFixes.zip
8200:556ae5c3:DrMario_InputFixes.zip
8200:198c2f41:DrMario_InputFixes.zip
8200:f7fc9505:DrMario_InputFixes.zip
8200:9735d267:DrMario_InputFixes.zip
6263:595daa35:Rad Racer - Easy Type.zip
6263:8b9d3e9c:Rad Racer - Easy Type.zip
7109:6e4d873b:galaxian_title_screen-v1,0.zip
7109:e5d11921:galaxian_title_screen-v1,0.zip
3114:488bf94e:Pinball Quest (U) [!] [hM04].zip
4982:3c9622d3:Bucky O'Hare Enemy Colors.zip
4982:e19ee99c:Bucky O'Hare Enemy Colors.zip
7869:a5a28c23:Transformer - Convoy no Nazo - Disable Flashing.zip
7869:ea89963f:Transformer - Convoy no Nazo - Disable Flashing.zip
3886:77bab039b13a974a46686a7647c0affd00b4a9ad:R3TR.rar
7195:2165c0c2:Zanac AntiFlash.zip
7195:e292aa10:Zanac AntiFlash.zip
7623:6453f65e:Ufouria NTSC DPCM HACK.zip
7623:4ec0fecc:Ufouria NTSC DPCM HACK.zip
778:ebb9078b:Cheetah_Men_II_(U)_-_BUGFIXED_v2.1.7z
998:a46011a0:MegaManReloadedV1.4.zip
2722:ddbc0b5a:fix.rar
2948:97f05116:ff3deluxe.zip
2948:362000f0:ff3deluxe.zip
3851:94339dff:Challenger DX.zip
248:f4637ec0:valisplus11.zip
7576:4f505449:Wizards & Warriors III - Kuros...Visions of Power (Music Fix).zip
7576:d2562072:Wizards & Warriors III - Kuros...Visions of Power (Music Fix).zip
6016:aceb84c1:Immortal, The (U) [no-dim].zip
6016:8889c564:Immortal, The (U) [no-dim].zip
7998:cc5a32d5:zhlevfix2.zip
7998:41632cb6:zhlevfix2.zip
7948:aa41c0a4:Alien 3 Improvement.7z
7948:ddc6d9c9:Alien 3 Improvement.7z
4448:f21b23df:Spider-Man - Return Of The Sinister Six color fix (U) [!].zip
4448:d679627a:Spider-Man - Return Of The Sinister Six color fix (U) [!].zip
6896:f4db4c83:Chip to Dale no Daisakusen 2 (J) (Boss-Only Hack).zip
6896:99686dad:Chip to Dale no Daisakusen 2 (J) (Boss-Only Hack).zip
6688:45ba15fa:Hamtaro - Panda's Ham-Ham Fun Park.zip
6688:81a5eb65:Hamtaro - Panda's Ham-Ham Fun Park.zip
6975:4b539429:Raggedy Land IPS.zip
6975:d17b76da:Raggedy Land IPS.zip
4825:23b6a40970e21f882b68348b01014db29f5a6b3b:Miami Vice The Videogame ver1.2.rar
1804:4433ba0a:TwinBee - Van-1.rar
5459:ff1cefaa:Penguin Land NES.zip
3508:0207ef1c:Eientei Action (J).rar
2348:eb0bda7e:SHINOBI ARCADE V2.2.1.rar
7681:9edd2159:R.C. Pro-Am II (U) (Famicom 4-p).7z
8206:a6de1b55:Mario Bros. - Toad Edition.zip
8206:c4c3949a:Mario Bros. - Toad Edition.zip
7153:658f53d9:Penguin Hunter IPS Patches.zip
7153:82fd4907:Penguin Hunter IPS Patches.zip
882:8f77cce0:JTS_PLUS_09122011.zip
3494:3b76da2a9a2aa2a9db3f38bcd26b7f75:Ganbare Goemon Gaiden - credits bugfix.7z
2596:ab1567be407c4f05cbad8f1b434f2d3c745bcc84:TaleSpin another shitty day.7z
7256:e981a729:Shui Guan Pipe (Unl) [f1].zip
7256:e6bdbb0c:Shui Guan Pipe (Unl) [f1].zip
7025:25cff786:MurderClub_GirlCute.zip
7025:3b1a7eef:MurderClub_GirlCute.zip
7901:b08a3ac9:startropics_2_no_beep.zip
7901:d054ffb0:startropics_2_no_beep.zip
7720:6decd886:guerrilla_war_blood_war_hacks.zip
5569:c296c8ce:UltimateMuscle(AhovsGenX).zip
5569:a08b4701:UltimateMuscle(AhovsGenX).zip
2794:8c56df11:Route 16 Turbo (J) [level 9 fix].zip
2794:728bfa8d:Route 16 Turbo (J) [level 9 fix].zip
2270:ccc47a57:Ki No Bouken - The Quest Of Ki -hack.zip
2270:e1526228:Ki No Bouken - The Quest Of Ki -hack.zip
8174:2e15075a:Recca - Always Fire Secondary Weapon.zip
8174:f31dcc15:Recca - Always Fire Secondary Weapon.zip
6894:39c68f84:GARFIELD.zip
6894:b4ff91e7:GARFIELD.zip
7190:516ba002:Ninja Ryukenden II (5 Difficulty modes) v2.0.ips.zip
7190:7bf8a890:Ninja Ryukenden II (5 Difficulty modes) v2.0.ips.zip
5567:69360d01:Nancy.zip
5567:7c6a3d51:Nancy.zip
5411:1d6b80da:NES Dream Team (Cocoron Hack by biejor1).7z
5411:78c4460d:NES Dream Team (Cocoron Hack by biejor1).7z
2279:8b190ddc:sky_kid_-_enhanced_ips.zip
2936:959ca227:JP Ronny - Fix Hack by LANCUSTER.zip
6996:b6f4b759:Kiteretsu Daihyakka (DMC Buzz Fix).zip
6996:db479677:Kiteretsu Daihyakka (DMC Buzz Fix).zip
978:11879fe8:Magician (Nuts and Milk Hack).rar
3121:9d39585b:Mario's_Alley.zip
555:804ef7f9:snd100.zip
479:c2abc97a:DragonWarriorUnlimited.zip
4209:eb506bf9:Star Wars Easy.zip
4209:c1c3636b:Star Wars Easy.zip
7900:689de607:Legendary wings player character hack.7z
7900:a2194cad:Legendary wings player character hack.7z
3099:fca83867:Tom and Jerry (and Tuffy) (U) [BZK].zip
708:e9cf747f:1942_Cold_Winter.rar
981:771a9138:rock4_haikeiV2.zip
858:7d7b7a67646332f4acca3d10de1c8bea:Blades_of_Steel_-_Swiss_NLA_Edition_(v1_2).zip
7538:c50a8304:Contra  New Year 2017.zip
7538:f6035030:Contra  New Year 2017.zip
4938:b3408ee4:Chase H.Q. Fixed.zip
4938:99d38676:Chase H.Q. Fixed.zip
809:d3a91b41:Arcade Bubble Bobble-1.7z
4052:89001958:Mortal_Kombat_4_music_hack15_92_final_M.rar
4052:a39311ca:Mortal_Kombat_4_music_hack15_92_final_M.rar
6906:d7b8aea3:Tetris 2 + Bombliss (2 Player Pause Fix).zip
6906:3ff44f87:Tetris 2 + Bombliss (2 Player Pause Fix).zip
1772:9748b0bc:UCA_v2.zip
7107:525c0dab:space_invaders_title_screen-v1,0.zip
7107:d9c093b1:space_invaders_title_screen-v1,0.zip
4692:2360e7df:Predator (Japan) MMC5 Patch v1.1.rar
4692:4ed3c6f1:Predator (Japan) MMC5 Patch v1.1.rar
3143:0c48863d30e94ff82bd7a885871fc6f0:operation_secret_storm_fix_hack.rar
7441:d1691028:Devil_Man_(J)_Music_Player_hack.zip
963:a3a19253:luigi_kun.zip
636:e0da4346df6a6820e881f8ee66a9adf145947c31:Soap_Panic_Repairs.zip
854:e90cf066:Tecmo Futebol Brasileiro.rar
854:8a5bc0d3:Tecmo Futebol Brasileiro.rar
6463:33be5cfd:RoboCop - Texas Edition.rar
6463:192d546f:RoboCop - Texas Edition.rar
7742:74caebe3:ShadowgateMouseHackV2.zip
7742:6a1f628a:ShadowgateMouseHackV2.zip
992:fce6cea2:Megaman 3 Improvement Ver 300.zip
992:be6dbb5d:Megaman 3 Improvement Ver 300.zip
7912:18967ea6:P.O.W 3-in-1 Short turbo Mode v2.8.ips.zip
7912:75255f88:P.O.W 3-in-1 Short turbo Mode v2.8.ips.zip
90:b7327510:exploitfix.zip
5000:f19a4249:halloween_ips.zip
5000:beb15855:halloween_ips.zip
7129:636e20f5:Pikachu5 (Wonder Rabbit Patch).zip
7129:49fd2867:Pikachu5 (Wonder Rabbit Patch).zip
7433:2dcc26dfca2cf215afcab0c61d4252030e842cb1:Musashi No Ken - button swap v 1_0.rar
573:39d371ec:rr2_novram.zip
6731:690a4eb2:Garfield Kart NES.zip
6731:aaed295c:Garfield Kart NES.zip
7792:dfdec378:Huang_DI.zip
8130:43507232:super UTAU sanninmusume.rar
8130:57ac67af:super UTAU sanninmusume.rar
5319:2caae01c:Felix the Cat.ips.7z
5478:eb171d77:Paperboy NES - Palette Improvement.zip
5478:32086826:Paperboy NES - Palette Improvement.zip
6031:1dc4915b:Lethal Weapon (U) [no-dim].zip
6031:7077b075:Lethal Weapon (U) [no-dim].zip
7914:8032bdb7:Tetris CCE (Famicom).zip
7914:5c5a1ab8:Tetris CCE (Famicom).zip
4757:5e4119e0771bec24a46bad4e874df05521bb953c:Shizuka-chan.zip
4594:daad65e0:Mush Mush - Toad and Toadette.zip
4594:f03e6d72:Mush Mush - Toad and Toadette.zip
2443:1fa8c4a4:hard patch 1.rar
2512:a5d317f9565dfefd286bc50e828667c5801b606b:Low G Man crash fix.zip
2512:841d21d617c32d4e79c53b30fd4ec00b928331c5:Low G Man crash fix.zip
7824:25225c70:Deadly Towers - No music reset [001].zip
7824:454f371c:Deadly Towers - No music reset [001].zip
1136:b0ebf3db:Magic Kids.zip
4006:6a280a9bcf01d756ebda46f5158080fadee6a737:The Magic Of Scheherazade Randomized Mod.zip
3548:e9b39b87:Medicine Pop (J).rar
3880:dbece74f:sd hero hack updated.rar
3422:c1d7ab1d:ThunderForce3.zip
4362:12b32580:HOKUTONOKEN3-SPRITEFIX.rar
4362:771ce357:HOKUTONOKEN3-SPRITEFIX.rar
3068:583e112fd794ad3b9bcdae23eb22005c208aa4ee:Galaxy 5000 (U) (2P Hack).zip
8070:b27bcf3d:Wai Wai World (J)hack.zip
668:1bb879b0:pyokotan.rar
7595:1752ef8a:Kirby's Adventure (U) - Input Fix.zip
7595:d7794afc:Kirby's Adventure (U) - Input Fix.zip
7205:d232d049:Break Time - The National Pool Tour (Fixed Voice Samples).zip
7205:5f0bce2a:Break Time - The National Pool Tour (Fixed Voice Samples).zip
1836:cc4f5101:Millipede - Surface Fire.rar
7299:cb4370b5:Bravesoft Windows NES 2000.zip
7299:305d75b1:Bravesoft Windows NES 2000.zip
3123:dc1e51b9:NST [002].zip
4708:13ff5a62afe5ee7b4ea5d537ee92bfa253eb98f6:Street Fighter II rev06102019.rar
5079:224b90ff:Action 52 2600 Graphics Edition.zip
6630:6f1485ed:Cat Ninden Teyandee - STAMINA MODE v4.8.ips.zip
6630:45878d7f:Cat Ninden Teyandee - STAMINA MODE v4.8.ips.zip
746:3df8e170:punchout_no_tko.zip
5678:19abbf3c:SCAT_ManualOp.zip
5678:74189e12:SCAT_ManualOp.zip
4125:9d6c39d58ea5edbc38fc87a58702718d9feee46e:New Ghostbusters II (J) - Overscan.zip
95:a9c2c503:supercv2.zip
5126:322a6cca:color-a-ninja.zip
6017:dc1a82cb:James Bond Jr (U) [no-dim].zip
6017:f6898a59:James Bond Jr (U) [no-dim].zip
7457:1e6a5a77:Erika to Satoru no Yume Bouken (Title Music Fix).zip
7457:ef7996bf:Erika to Satoru no Yume Bouken (Title Music Fix).zip
3184:e0cdd36e:Home Alone - Improved Version (Hack by LANCUSTER).zip
6667:71ff1e76:Getsu Fuuma Den EasyType.7z
6667:49123146:Getsu Fuuma Den EasyType.7z
2280:c6000085:Conan  (Button Fix) V 1_0.rar
6357:2e52d091:AkaiYousai.zip
6357:1d5b03a5:AkaiYousai.zip
4290:24a25f9dc3227687239fca9e7bbb1f1b7664d6dd:Ranma vs Ranma! 2.1.rar
6619:e27ec1ec:3 Eyes Boy 3HP 2HP v5.9 (translated).ips.zip
6619:c8edc97e:3 Eyes Boy 3HP 2HP v5.9 (translated).ips.zip
7077:55211022:Family Basic Tetris.zip
7077:b2530afc:Family Basic Tetris.zip
7781:198b4e3b:Godzilla improvement V1_1.rar
7781:74386f15:Godzilla improvement V1_1.rar
2576:ca618e273e0e4d47d0da8428a4f0661d7ee0c51f:Joust.zip
2436:1e060ae0:Spy Hunter CNROM to MMC3.rar
7316:61202fe9:Kyoro-chan Land (DMC Buzz Fix).zip
7316:5229fcdd:Kyoro-chan Land (DMC Buzz Fix).zip
8086:a3815bac:Sqoon (USA) - Debarnacled v1.0.zip
8086:44f34172:Sqoon (USA) - Debarnacled v1.0.zip
942:1924f963:BStars_Graphics.zip
7509:c1348e6f:FC_DQ_ReBake.zip
7509:a49b48b8:FC_DQ_ReBake.zip
4364:99d81100:Mortal Kombat 2 (NES).zip
7983:9fc60476:Mario World NES 2015-2023.zip
7983:145a9a6c:Mario World NES 2015-2023.zip
7983:87e4a116:Mario World NES 2015-2023.zip
7335:bbd0542b:Urusei Yatsura - Flash Removal.zip
3242:e8ee7ddc:Ultimate Stuntman - Improved Version (Hack by LANCUSTER).zip
6459:62c5d10c:SRW2 - 30th Anniversary Patch.zip
6459:c48363b4:SRW2 - 30th Anniversary Patch.zip
3439:d3b42f6d:Track & Field (U) [!] [hM04].zip
7927:701f4326:Snow Bros - Happy Hack 07082023.zip
7927:1dac6208:Snow Bros - Happy Hack 07082023.zip
669:2f36c2f1:GDG Hard.rar
7890:1ae1c147:Contra_Spirits_New_music_and_Improvements_1.0.7z
7890:550b6bb3:Contra_Spirits_New_music_and_Improvements_1.0.7z
5159:713309ba:Skate or Die MMC5 Patch.rar
5159:423ada8e:Skate or Die MMC5 Patch.rar
2640:d830680830f76530f6ec17faa19c0df3:Dezaemon SRAM Fix.zip
5388:a00653e1:Boulder Dash - Gemma Rush (v1.1).zip
5388:e5fcc4c1:Boulder Dash - Gemma Rush (v1.1).zip
2391:300e41b7:adventures_in_the_magic_kingdom_-_sora_edition_ips.zip
5227:bb83cfa1:Aussie Rules Footy 2020.7z
5227:d630ee8f:Aussie Rules Footy 2020.7z
7865:338c11d5:JJ (Pulse Buzz Fix).zip
7865:b39a3f5b:JJ (Pulse Buzz Fix).zip
5415:7a269942:gradius resurrection.zip
5415:350d835e:gradius resurrection.zip
5791:e25ce19d998243f6eccf9998379d4fc65c563b2f:Donkey Kong Classics (U) [!].zip
6905:11da7e45:gtttr.zip
6905:8bf29cb6:gtttr.zip
6152:3cc270fb:googies_island.7z
6152:dbb06a25:googies_island.7z
800:62c67984:Dodgeball.zip
5817:9a496c1f:Solomon's Key Title Screen v1-1.zip
5817:4356194e:Solomon's Key Title Screen v1-1.zip
4487:da9ad540:Toxic Crusaders Easy.zip
7057:26796758:Rampart (Fixed Samples).zip
3196:db88f973:TM.rar
99:a2c89cb9:metdeluxe.zip
7445:9bb6059e:Super Contra (J) (Crouch Hack).zip
7445:b1250d0c:Super Contra (J) (Crouch Hack).zip
8103:15d202d8:Hokuto no Pac.zip
8103:9e4e9cc2:Hokuto no Pac.zip
97:d7ae93df:fallmoon.zip
3553:20dc6ce6:chenball_(J-AC).rar
6386:526ad690:Gyruss_ja.zip
6386:1d41cc8c:Gyruss_ja.zip
2914:3fb7869b:Karnov_Hack_by_LANCUSTER-wap_sasisa_ru.zip
3649:efa19c34c9dc95f7511af979cad72884a6746a3b:Arkanoid (J) - Revised by nesrocks v103.zip
6532:bf2947ba:Lupin Sansei - Pandora no Isan (EverDriveN8_fix).zip
6532:9d21fe96:Lupin Sansei - Pandora no Isan (EverDriveN8_fix).zip
7161:444ad6b8:Penguin Bomber NES IPS.zip
7161:a338cc66:Penguin Bomber NES IPS.zip
7639:1741286b:Milon's Secret Castle - Full Health Mode v1.0.zip
7639:586a3277:Milon's Secret Castle - Full Health Mode v1.0.zip
6702:2bb33c69:Excitebike MMC5 Patch v1.1.rar
6702:49aeb3a6:Excitebike MMC5 Patch v1.1.rar
2809:0e2113fb:new basket.rar
5996:827dc0b9:F1RaceLoopless.zip
7033:3efb001c:Gauntlet (Fixed Voice Samples).zip
7033:ec968c51:Gauntlet (Fixed Voice Samples).zip
5412:f56c955e:mm1res.zip
5412:532a27e6:mm1res.zip
4376:f5985a75:NARC_Easy.zip
3938:763f2d28:galious_save.zip
3938:4536fe1c:galious_save.zip
8002:b6f4f544:JDC_Faxanadu SHUDF-v100.zip
8002:e71db268:JDC_Faxanadu SHUDF-v100.zip
4993:6f371f16:Jackie Chan's Hulk Smash.zip
4993:45a41784:Jackie Chan's Hulk Smash.zip
5734:516549f9:BurgerTime Redrawn.zip
5734:daf9d7e3:BurgerTime Redrawn.zip
6627:80c41616:ICKiki.zip
6207:6f0e4a40:Zippy_Race_(J)_Speed_hack_by_Guyver.zip
6207:e492d45a:Zippy_Race_(J)_Speed_hack_by_Guyver.zip
4266:7955dbe5ec63f71ba591a9237d113aaa90849263:Rick and Morty.rar
3139:fa6e237e3f4c0acd9d73e8cf73576723:road_fighter_more_time_hack.rar
8088:15eb0bee:Mighty Final Fight Turbo V 1_1.rar
8088:3f78037c:Mighty Final Fight Turbo V 1_1.rar
3180:8a65e57c:BP2_september.rar
472:efe35d6f:CaptainTsubasa2-HyperEdition.zip
7130:8c0c4871:Kick Master - Autoloot.7z
7130:5104833e:Kick Master - Autoloot.7z
7444:b34ed396:Tiny Toon Adventures - 4 Hearts Hack.zip
7444:99dddb04:Tiny Toon Adventures - 4 Hearts Hack.zip
7715:b28e9ea4:Doraemon Giga Zombie Easier.zip
7715:d7215873:Doraemon Giga Zombie Easier.zip
4640:e431136d:Dick Tracy MMC5 Patch v1.3.rar
4640:d738c059:Dick Tracy MMC5 Patch v1.3.rar
459:b095968f:honeypeachfix.zip
7660:2f2e30f7:Ninja Ryukenden III Hidden Slash (5-in-1) BGM ver.3.4a.ips.zip
7198:196afc68:Hyrule Wars.zip
7198:fe18e6b6:Hyrule Wars.zip
6999:682d2df1:Eliminator Boat Duel (DMC Buzz Fix).zip
5275:3a0b6dd2:Hero Quest (Late Proto - NTSC Conversion).zip
6767:b4811fc8:Willow-NES-fix-tuning.zip
6767:189462c2:Willow-NES-fix-tuning.zip
6767:7d8d5f51:Willow-NES-fix-tuning.zip
6428:c136143b:MiniHamsnoPipieline.zip
6428:1829616a:MiniHamsnoPipieline.zip
7131:5915b843:Valkyrie's Adventure SRAM + QOL.7z
7131:c6add8c5:Valkyrie's Adventure SRAM + QOL.7z
5305:b7eeb48b:Splatter House - Wanpaku Graffiti - Ghost Fix1.1.zip
5305:46fd7843:Splatter House - Wanpaku Graffiti - Ghost Fix1.1.zip
756:5ae55685:Donkey Kong Country v1.5.rar
6698:f8e0bc9b:Power Blade 2 - REVERSED, tough Select, Energy cap. 4.0t.ips.zip
6698:d273b409:Power Blade 2 - REVERSED, tough Select, Energy cap. 4.0t.ips.zip
5038:255a25fe:Snake's Revenge MMC5 Patch v1.0a.rar
5038:48e904d0:Snake's Revenge MMC5 Patch v1.0a.rar
1759:85cf4b52:GOLF - Starring KISS.rar
5423:bbca6da3:Elvira's Monster Party IPS.zip
5423:21e28f50:Elvira's Monster Party IPS.zip
4854:5ecfd3dc:TINASADVENTUREISLAND4.zip
4854:7bd8f902:TINASADVENTUREISLAND4.zip
4958:f0c0cedc:Duck Tales 2 - S3K music.7z
4958:7c736936:Duck Tales 2 - S3K music.7z
7947:d8ca4be6:Matendouji - Weapon Select, 3 Rounds v3.5td.ips.zip
7947:f2594374:Matendouji - Weapon Select, 3 Rounds v3.5td.ips.zip
7976:439ff96a:Quarth (double and triple speed v1.2).ips.zip
7976:9a808c3b:Quarth (double and triple speed v1.2).ips.zip
8138:5249764c:Wario's Gambling Addiction (American Dream hack).zip
8138:3ffa5762:Wario's Gambling Addiction (American Dream hack).zip
5554:4d483147:Lunar Pool virus edition.zip
5554:2f55be88:Lunar Pool virus edition.zip
5581:e9d532af:Where's Waldo (U) [!] Big Cursor.zip
5581:c3463a3d:Where's Waldo (U) [!] Big Cursor.zip
3388:cfd1eb5d:El Santo y Blue Demon contra los monstruos.zip
3549:95e02519:Tengu Shameimaru Kun (J).rar
826:83213ca0:tmnta.zip
6318:de808339:Bomberman II + Dynablaster - Fixed Samples.zip
6318:cc7bcfeb:Bomberman II + Dynablaster - Fixed Samples.zip
6318:1ebb5b42:Bomberman II + Dynablaster - Fixed Samples.zip
6318:e67be1d2:Bomberman II + Dynablaster - Fixed Samples.zip
6318:34bb757b:Bomberman II + Dynablaster - Fixed Samples.zip
932:44d123a4:front_line_2_hardcore.rar
7551:b86c09af:Pac-Man Championship Edition - Ghost eye restoration + Fixed PRESS START BUTTON Prompt.zip
7551:7d39449c:Pac-Man Championship Edition - Ghost eye restoration + Fixed PRESS START BUTTON Prompt.zip
945:ab12ece6:Final_Fantasy Legend of the 7th king.zip
749:dcb94341:dt_pogofix.zip
4945:f2cfa493:ASCIIBoxes-20200219.01.zip
2593:c07a2464:hnk32tr.rar
2268:023a5a32:Gyromite Special Edition V1_0.rar
7548:59318584:TheFantasticAdventuresOfDizzy_Fair.zip
7548:38fbcc85:TheFantasticAdventuresOfDizzy_Fair.zip
5098:65518eae:ADDAMS 1.01.rar
7863:3452e97c:Famicom Merciless 2.0.zip
7863:97cad370:Famicom Merciless 2.0.zip
6171:3068e95f:San Guo Zhi 4 - Chi Bi Feng Yun (Ch) (Music Hack by lancuster).rar
6171:fced9648:San Guo Zhi 4 - Chi Bi Feng Yun (Ch) (Music Hack by lancuster).rar
7038:83d69922:Arc Hound.zip
7038:a94591b0:Arc Hound.zip
3910:d213aa0d:Gradius II no upgrade loss.zip
3910:5adbf660:Gradius II no upgrade loss.zip
4730:8dfcacbd919f821d1fdc035184c278df77827b09:new_york_brutes.7z
3677:71d868c4:Little Nemo Dream Master - A Wonderful Wand Edition - v1_7.zip
1657:e5bf8f0c:Final Fantasy VII Advent Children Ver 1.1.rar
1125:1e483ca6:X-Men_-_Handicap_Patches.zip
7862:49aec658:donkey_kong_original_edition_e-vc - kill-screen variety pack.zip
7862:90b1b309:donkey_kong_original_edition_e-vc - kill-screen variety pack.zip
7211:41e805f4:Donkey_Kong_Jr._Juancho_GameCube_Edition.rar
7211:a69a1f2a:Donkey_Kong_Jr._Juancho_GameCube_Edition.rar
8161:99f5db31:final-fantasy-iii-neoclassical.tgz
8161:57e220d0:final-fantasy-iii-neoclassical.tgz
6073:5d8f80c7:Adventure Island II (Winter Edition) by Piotrek1113 (v1.1).rar
6073:771c8855:Adventure Island II (Winter Edition) by Piotrek1113 (v1.1).rar
5887:ac05464f:TMNTTF[U!]-FinishHim-V6.rar
5887:86964edd:TMNTTF[U!]-FinishHim-V6.rar
3005:922583bf:Robin Hood - Prince of Thieves (USA) (PRG1) Simplified with Druid Dagger Fix.zip
3005:c3ccc493:Robin Hood - Prince of Thieves (USA) (PRG1) Simplified with Druid Dagger Fix.zip
3270:74c08f86:American Gladiators (U) [!] [hM04].zip
6241:db0c7019:Fester's Quest PAL changes to NTSC.7z
6241:b6bf5137:Fester's Quest PAL changes to NTSC.7z
7135:31ad3838:Pushy Penguin IPS.zip
7135:cf701da4:Pushy Penguin IPS.zip
6660:e55284da:Lee Carvallo's Putting Challenge.zip
6660:88e1a5f4:Lee Carvallo's Putting Challenge.zip
5641:6ccd5c11:Sword Master.zip
5641:465e5483:Sword Master.zip
2200:6c430704:Thundercade - Two Control By One Edition.rar
5871:658d4fd4:WRECKING_CREW_LUIGI_MARIO_SWAP.zip
5871:9b506a48:WRECKING_CREW_LUIGI_MARIO_SWAP.zip
8096:b9804046:Bomber Emma.zip
8096:db9dcf89:Bomber Emma.zip
5965:7a6e0454:Double Dragon 3 liquid mod.rar
8018:8713de54:BB Car - No Music Edition.zip
8018:7f9c1dec:BB Car - No Music Edition.zip
7132:25e9c1b9:Rockman 6 Harder ver..rar
7132:2d664d99:Rockman 6 Harder ver..rar
6283:8f9b38a8:Marusa_no_Onna_IPS.zip
6283:e2281986:Marusa_no_Onna_IPS.zip
7930:c9ad622c:Super_Sanic_Bro.7z
7930:86867830:Super_Sanic_Bro.7z
319:54dc10cd:HKW-Translation.zip
3311:668b885abf865b74f84c221fa2cc4c9ae58d1b98:Layla - The Iris Missions (v3).zip
5349:62afe166:Double Dragon (USA)remastered.rar
898:f4ebe9b2:NJ046 - Pocket Monsters - Yellow (C).zip
6162:a6c5cbd8:King's Quest V - Save fix 1.1.zip
4087:1df12a7b72f3d2a0c506216acf8acc0a81b923f7:Strider Proofread.zip
5605:1dd60e53:Pachi Com - YS Sound Fix.zip
5605:e30b2bcf:Pachi Com - YS Sound Fix.zip
7326:bce1da2c:Circus Caper - Improved Font (hack).7z
7326:d152fb02:Circus Caper - Improved Font (hack).7z
4128:a5e89b19:Championship Bowling (Brunswick Bowling Edition).zip
8053:f74a04ab:Shadow of the Ninja - Black Bar Removal.zip
8053:ddd90c39:Shadow of the Ninja - Black Bar Removal.zip
2642:2826485d:BWH.rar
4703:f411c7903452c9470c8bf73fed334c485f14a8e4:GhostbustersRemasteredv11.zip
6040:b130942b:Arkanoid II (J) [USA PADDLE HACK].zip
2072:c9c09e0d:Last Ninja 2.zip
7970:fc5e400f:TSB 2023 v2.1.zip
7970:179a0d57:TSB 2023 v2.1.zip
2244:88c30fda:Super Turrican Plus V 1_3.rar
8250:8962aebf:indy.zip
8250:77bf8b23:indy.zip
4532:feda0b39:Flintstones 2 Minigames [009].zip
687:10859c6b:Nekketsu Kakutou Densetsu ULTRA.rar
8237:f599a07e:Battle City Grayscale Domain.rar
8237:7e053e64:Battle City Grayscale Domain.rar
8271:a3b4f5de:Rayman_v1.2.7z
8271:8927fd4c:Rayman_v1.2.7z
7934:ba9164e7:Battletoads (U) - Patch_Musica.zip
7449:53b02f3d:Battletoads & Double Dragon - Unlock all toads attacks.zip
7449:ceb65b06:Battletoads & Double Dragon - Unlock all toads attacks.zip
6062:b04ece9e:SMB8.rar
6062:a7b0536c:SMB8.rar
3517:9da252b4:Toho Otutoutou (J).rar
5117:f86d5c4c:Ren_adventures_2023.09.7z
5117:9e898385:Ren_adventures_2023.09.7z
922:545d341a017ce84641eaf77511efb458:Crystalis Rebalanced.ips.7z
7827:19af4032:Werewolf the last warrior Improvement V1_0.rar
7827:333c48a0:Werewolf the last warrior Improvement V1_0.rar
3115:9d4b8891:Magic Jewelry 2 (Unl) [!] [hM04].zip
2261:f41f1f4e:Kunio Kun no Nekketsu Soccer League (J) (Team Hack 2014 - 4P PK).rar
6704:b0aff609:Marisa no Meitantei.zip
6704:f41add60:Marisa no Meitantei.zip
6877:755cf043:Klax (Fixed Samples).zip
6877:93f3a490:Klax (Fixed Samples).zip
3052:820d62ab:World Cup 2002.rar
8136:480ff69c:Ms Pac-Man - Strange Mazes 2.rar
8136:b6d2d300:Ms Pac-Man - Strange Mazes 2.rar
6556:80704705:Operation Wolf - Full Equip Marine (HK Studios).7z
6556:edc3662b:Operation Wolf - Full Equip Marine (HK Studios).7z
7655:c4cf0e8e:Holy Diver - Input Handling Fix.zip
7655:ba51ac6f:Holy Diver - Input Handling Fix.zip
5075:7c40d6c6:back_to_the_future__music_fix__ips.zip
5075:a55fa397:back_to_the_future__music_fix__ips.zip
805:b8fd02b7:PSTHAIRFORT.zip
1400:18f9bb24:8eyesCastlevaniaB3.7z
3292:e94e4c2f38137220bf2622e10be96477ed67f472:Clovermon Hunter.zip
890:1fd46615:Wolverine (U) (Easy).zip
7788:ef1c8906:Clash at Demonhead (USA) - Reduced Flashing.zip
7788:82afa828:Clash at Demonhead (USA) - Reduced Flashing.zip
7748:cb2c08d4:[v1.3]NESLemmings(USA)Improvement.zip
7748:a69f29fa:[v1.3]NESLemmings(USA)Improvement.zip
6147:cf6d0d7a:Top Gun (USA) Double Missiles IPS.zip
3257:39207888:RBI - 2016 World Series.rar
3592:dcfd85fc:irontank.zip
7546:fbf8a785:FFWheel.zip
3844:1bf58d195b2b3aec88b58b48decfe0384b66b7c4:exodus REDESIGN.zip
3502:90ba96d2b1d0ab0fcc3d712c2ccf98a012b4a899:battle_city_2_warpman_rus.rar
2687:604fa3fc:Knight Rider MMC1 to MMC3.rar
3692:54690480:star_soldier_laser_hack.rar
3655:a8f567dd:Datach DBZ 00to68.zip
3655:19e81461:Datach DBZ 00to68.zip
7527:5d83c1e5:lotgl_makeover.zip
6830:aab00873:Inspector Gadget NES IPS.zip
6830:beb8ab01:Inspector Gadget NES IPS.zip
6014:f90ae80e:Dragon's Lair [no-dim].zip
6014:ca033b3a:Dragon's Lair [no-dim].zip
3682:55ffa555:Kyuukyoku Tiger (J) [!] [bps].rar
7992:4546aae3:Shovel_Knight.7z
7992:6fd5a271:Shovel_Knight.7z
3120:c5211378:Snoopys Silly Sports Spectacular (U) [!] [hM04].zip
795:88b55f68:NWCPause.7z
6458:952cdacf:Takahashi Master's Adventure Island III - 1.1.zip
6458:bfbfd25d:Takahashi Master's Adventure Island III - 1.1.zip
7579:f3c8edec:Green Beret FDS to NES [002].zip
5880:4a432c5c:Deja Vu Uncensored.zip
5880:43d01c10:Deja Vu Uncensored.zip
3128:cf378fb2:Trojan (U) [!] [hM04].zip
5743:b1b1d1bb:pictionary_v1.zip
5743:dc02f095:pictionary_v1.zip
7128:c415bf72:Duncan's Thin Ice IPS.zip
7128:a60830bd:Duncan's Thin Ice IPS.zip
1770:b92ba5d1:RKFFE.zip
2395:7254d53d:Captain America and the Avengers (Stage selector).rar
7684:da7a9f89:Gargoyle's Quest II - Photosensitivity Patch 1.0.zip
7684:f0e9971b:Gargoyle's Quest II - Photosensitivity Patch 1.0.zip
7684:7998c426:Gargoyle's Quest II - Photosensitivity Patch 1.0.zip
7684:530bccb4:Gargoyle's Quest II - Photosensitivity Patch 1.0.zip
7201:db0c3656:Bugs Bunny Crazier Castle NES IPS.zip
7201:e50a9130:Bugs Bunny Crazier Castle NES IPS.zip
301:51dcc76f:Wario_s_Woods_Enhancer_v1.0.zip
3817:dcd20ec8:Xexyz - SRAM Saving Edition v1_0.zip
3817:b1612fe6:Xexyz - SRAM Saving Edition v1_0.zip
6548:27f8d0d2:Punisher - Final Payback v1.zip
277:a86fb17a:StedEasy.zip
463:7a5cc019:afterlolo2.zip
2375:c0fa0464:Ninja Kun - Majou no Bouken (easy).rar
960:85a79d9c:nnsmb31990.zip
7258:caaf5c6b:DW1_Updated_Menu_v11.zip
7258:3b3f88f0:DW1_Updated_Menu_v11.zip
7258:d4d5f5d7:DW1_Updated_Menu_v11.zip
7258:2545214c:DW1_Updated_Menu_v11.zip
5661:9d922166:ShatterInSolbrain.zip
5661:b70129f4:ShatterInSolbrain.zip
6213:f12f16a6:Nintendo World Championships 1990 (USA).7z
7874:d4f5287b:The Original Macho Riki Sprites.zip
7874:9bde3267:The Original Macho Riki Sprites.zip
7904:88f071c3:Tetris Tengen XE.zip
7904:343c7bb0:Tetris Tengen XE.zip
6310:558f9a33:Snake Rattle N Roll - Unlimited Continues.zip
6310:fdf4569b:Snake Rattle N Roll - Unlimited Continues.zip
9:5e268761:Bass2.zip
4587:ed081b5c6dbddd623a845f0d27b4a288:DK Jr. Math-Crowned-IPS.zip
8269:e3c788b0:Z2Paracosm v1_3.rar
8269:ba322865:Z2Paracosm v1_3.rar
2740:9a83817c:SilverSurfer6.zip
8036:a6265336:Galaga (FF).zip
8036:e911bcc4:Galaga (FF).zip
1979:44070cfa:YYH.zip
6673:e37ad9fb:Time Lord No Flashing.zip
6673:13d5b1a4:Time Lord No Flashing.zip
994:c0f73d85:Destiny of an Emperor; Rise of Ieyasu 2.0.zip
1639:bf822264:Salamander - AC DELTA09A.zip
651:7e68abab:binary_land_-_penguins_family.rar
4115:5b4615452f8219da66edd1d9103178befca3ad0a:Mendel Palace Vapor.rar
3440:c503fb78:Race America (U) [hM04 v2].zip
3518:ef36807d:Sansuu 1 Nen - Kaei Duka (J).rar
6924:242fcd29:VS Super Selz - Arcade Edition.zip
6924:98e3c75a:VS Super Selz - Arcade Edition.zip
4645:aa9ca482:The Goonies II MMC5 Patch v1.2.rar
4645:999577b6:The Goonies II MMC5 Patch v1.2.rar
4474:a3791fe7928e8057e478f8d21b51b51c942325f5:Superman.rar
4474:1b9f5592ffc2c3ecc857a723e70298eebdd07143:Superman.rar
308:9eb7aa58:pesc_fix10.zip
997:0ea29d38b0d1740234ded685546d5ed9e1b3699e:Castlevania - Horror of Dracula - v2'2.zip
997:ee09b857c90916edd92a20c463485a610b0a76fd:Castlevania - Horror of Dracula - v2'2.zip
5326:eed05076:Ikari Warriors 1.ips.7z
5326:2d273aa4:Ikari Warriors 1.ips.7z
7803:3f0e8e0a:Lupin_III_Gentle_Thief.rar
7803:5d1301c5:Lupin_III_Gentle_Thief.rar
2666:6b8f23e0:Gun Smoke UNROM to MMC3.rar
5170:ffb8c056:DW2 RE-Quest v1.12.7z
5170:8c5a784e:DW2 RE-Quest v1.12.7z
7675:f316b497:RT gaiden.7z
7675:2e1e7fd8:RT gaiden.7z
6133:3887557d:Hiryuu no Ken - minmin edition.zip
5022:dd6141df:trog-nes-fair-pvp--IPS--v1.0.zip
5022:ee6892eb:trog-nes-fair-pvp--IPS--v1.0.zip
4328:e76915b9:roadblasters-auto-accelerate.zip
8217:395569ec:Batman - The New Levels.zip
8217:13c6617e:Batman - The New Levels.zip
7142:6ea63a46:Pac-Land Ghost Personality fix.zip
7142:89d42098:Pac-Land Ghost Personality fix.zip
6676:4b08e280:Gun-Dec 4HP GUN Mode v4.5 translated.ips.zip
6676:619bea12:Gun-Dec 4HP GUN Mode v4.5 translated.ips.zip
2858:e45d5d88:Guerra del golfo, La (Spain) (Gluk Video) (Unl) [MMC3].zip
2627:06d4e09c:Bungeling Bay - C64 Edition.rar
7273:f899bf59:MightyMorphinPowerRangers006.zip
7273:952a9e77:MightyMorphinPowerRangers006.zip
6756:67751094:DvD_Translations-The_Adventures_of_Bayou_Billy-revA.zip
938:e06a060b:Eggerland Mystery Remake V1.1.zip
3540:dccbe3ae:Atlan Cirno Nazo (J).rar
6596:99626ab1:KIDKOOL.zip
6596:aa6bb985:KIDKOOL.zip
4118:9b37acaf:RLJ REDESIGN.zip
4118:99083b3a:RLJ REDESIGN.zip
5442:d1cac3c2:DonkeyKong3(U)Highscore-savepatch.zip
5442:b3d74c0d:DonkeyKong3(U)Highscore-savepatch.zip
5748:e625e398:Batman Returns (USA) - Bugfix_Hardmode.zip
5748:c247a23d:Batman Returns (USA) - Bugfix_Hardmode.zip
5192:9357a157:The Adventures of Captain Comic - camera fix - Nesrocks.zip
5192:a5e89675:The Adventures of Captain Comic - camera fix - Nesrocks.zip
2284:14289a6dfa8b85ef2c06fa81d6ed61ae7c2868d1:Batman ROTJ movement hack.rar
869:5e023291:Mega Man Maverick Revenge 2 beta one.rar
5413:90f4b83c:Little Samson Restoration.zip
5413:b5e392e2:Little Samson Restoration.zip
5413:7e4d9b26:Little Samson Restoration.zip
5413:5b5ab1f8:Little Samson Restoration.zip
3539:2132cd51:Nazrin Land (J-AC).rar
660:8579fa86:uninvited.zip
958:52bcf64a:blaster_remaster_patch.zip
6381:e3e0bc5f:ExcitingBasket.zip
6381:d0e96f6b:ExcitingBasket.zip
4057:2d328e32:Bible Adventures 7.zip
896:c1a9e6c0:Ultima-3-A-New-Exodus-v1.0.zip
6400:1ab5b8c5:Magic Carpet 1001 (Unl)-MMC3.zip
6400:c3aacd94:Magic Carpet 1001 (Unl)-MMC3.zip
3116:098ad414:Mini Putt (J) [!] [hM04].zip
7310:11f953f6:Ninja Gaiden (USA) Upgrade A 1.00a.zip
7310:7c4a72d8:Ninja Gaiden (USA) Upgrade A 1.00a.zip
7756:e9151645:dudes_with_attitude_new_levels.zip
7756:bd29178a:dudes_with_attitude_new_levels.zip
7784:68309d06:Maniac Mansion (USA) Uncensored v2_4.zip
771:ab12ece6:KIZZ.zip
7793:c3508f7e:Night City Ransom-Live!!!.zip
7793:e9c387ec:Night City Ransom-Live!!!.zip
6946:ada49341:Bad-Dudes_(U)_[Hack-Voice-Sampling].zip
6946:161d717b:Bad-Dudes_(U)_[Hack-Voice-Sampling].zip
5188:f4baa4ee:RoboCop2-Better_Physics_Nesrocks.zip
5188:990985c0:RoboCop2-Better_Physics_Nesrocks.zip
3552:2b265d30:Syou_Gate(J).rar
6543:e68a35bc:rolling_thunder_leilas_revenge.zip
6543:f92be3ec:rolling_thunder_leilas_revenge.zip
5416:69c9e654:Cookie's Original Sprites.zip
5416:435aeec6:Cookie's Original Sprites.zip
4178:cc4c6f33:Swamp Thing Easy.zip
2732:8085ca5d:mcssh.rar
7778:8b666c72:Terminator, The (USA, Europe) - EasyType.zip
7778:6272c549:Terminator, The (USA, Europe) - EasyType.zip
7247:1e76a86398f069da43b25351ef419be664d630c5:1943_MMC3.zip
3516:8b7ac605:lilylily (J).rar
7390:cb8fd7b2:Airborne Hound.zip
7390:401349a8:Airborne Hound.zip
5225:4877213a:Kart Fighter v1.2.zip
5225:6c15609f:Kart Fighter v1.2.zip
7837:af2b0b4d:Spelunker_Very_Hard_Mode.zip
3071:8daf3827:Penguin _ Seal - Diamonds of Arctic (Hack by LANCUSTER).zip
3165:2c46f2a3:Adoventoro Tcheco.zip
5832:bd0e29b3:Crazy Otto v2.zip
5832:43d30c2f:Crazy Otto v2.zip
146:2fdfbc79:astyanax_remix.zip
5560:07c934ff:Abu Travels in Agrabah.rar
5560:6717f186:Abu Travels in Agrabah.rar
3979:79bfe095:Bump'n'Jump - 10 Lives Edition.zip
3979:a0a095c4:Bump'n'Jump - 10 Lives Edition.zip
1584:c9556b36:FF++AndWoC.rar
3293:aca145d8:Karate_Champ.zip
8029:31d239d6:AnticipationFourScore.zip
8029:99a9f57e:AnticipationFourScore.zip
6609:829fe313:Toy Story SRAM.zip
6684:ea27976e:Ys III Rebalanced.7z
7507:09e87b076aa4cd6f057a1d65bb50fd889b509b44:NHL-95_Patch-v1,2.zip
8092:24ab4c3a:SoNiC & SHADOW 2 Double Jump 2 Gold by TRaiNoR V1.1232 Sprite MK.rar
5149:a8bfdbd6:Double Dragon II - The Revenge (remastered).rar
5754:1b569dc2:Exile Font hack.zip
4457:312fa0f2:Battle Mania Daiginjou Equalized.zip
4457:fab20c39:Battle Mania Daiginjou Equalized.zip
4457:07ba38f6:Battle Mania Daiginjou Equalized.zip
5687:4a3225c0:Batman Returns SRAM v2.zip
6149:f9f2bceb:Bloodshot Texture Fix.zip
5787:bbad77a4:RoboCop versus The Terminator SRAM.zip
8067:d48a8b02:Pit-Fighter Upgrade v1.1.zip
8126:b9ce9051:Crack Down Hi-Score SRAM.zip
3205:74bba09b:Pac-Mania colors v100.7z
6430:1c0dd42f:The Ooze Redux.zip
7761:792df93b:Ghostbusters - Special Edition v1.2c.zip
2747:25dfe62a:DariusII_EC.zip
5444:c7ca517f:Dr. Robotnik's MBM - 4 Colors for Battle.ips.zip
8077:7290770d:Ultimate Mortal Kombat 3 AI NERF.zip
7409:3c14e15a:Socket SRAM.zip
5740:67a9860b:Desert Strike SRAM.zip
8166:2d1766e9:Splatterhouse 2 Improvement v2.zip
3122:679c41de:friendlyfire_ips.zip
8085:c9a57e07:Art of Fighting Upgrade.zip
7125:4dea40ba:dune_razor_missions_remix.7z
5512:31a629be:The Terminator Remastered Edition by LinkueiBR v1-0.zip
5982:58a7f7b4:M.U.S.H.A. SRAM.zip
7982:abe9c415:Power Instinct Plus.zip
7931:33b1979f:ExMutantsTASBugFix.zip
2383:5bb8b2d4:Samurai Shodown_EC.zip
6401:8239dd17:Battletoads-Double Dragon SRAM.zip
7418:6511aa61:Ristar SRAM.zip
5806:4291c8ab:sonic_in_flicky_ips.zip
6173:f0ff078e:Garfield - Caught in the Act Password SRAM.zip
1676:17be551c:High Seas Havoc Fish.zip
5928:7eae088f0b15e4bcd9a6a38849df5a20446be548:Ultimate Chakan.zip
7469:b64f3d0fa74ec93782b4c0441653d72b675e23a7:Warlock_Patch_(v1,0)_[SMD].zip
7988:ef887533:Dick Tracy Arcade v.1.1.zip
884:4815e075:SF2-CE.zip
4602:e7e3c05b:Thunder Force IV - PAL to NTSC-U Region Fix.rar
2378:db8416cb:DD_Pyron_Patch.zip
827:5381506f:Shinobi III Enhancement.zip
7922:11b56228:Snow Sisters.zip
8278:631cc8e9:Kawasaki Superbike Challenge (SRAM).zip
6816:41fcc497:Rings_of_Power-Palette_Hack.7z
7557:57090434ee3ffb060b33a1dcce91d1108bf60c47:ZEMN-Patch-v1,0.zip
1854:c61ed2ed:Zero Tolerance - Beyond Zero Tolerance Levels 1-1.rar
7189:71f58614:The Addams Family Afterlife MD v1.0.zip
6178:3bf46dce:Gauntlet IV Password SRAM.zip
8095:01875bb6484d44a844f3d3e1ae141864664b73b8:Taz-Mania SRAM.zip
6969:13c181a4:Prince of Persia - Remastered Edition by Master Linkuei v1-3.zip
7288:1a7a2bec:Boogerman Password SRAM.zip
5771:d45cb46f:Bubba and Stix SRAM.zip
5119:3e4b9881dde758ef7bb090b39d3556d9bc0d9f1e:Turbo Outrun Color Hack 1_0.zip
8078:b69dc53e:WWF Royal Rumble (World) (Colors + SFX V1.05).zip
3206:95b5484d:TMNT-TFcolors.7z
3206:3cd2b7e6:TMNT-TFcolors.7z
3206:8843f2c9:TMNT-TFcolors.7z
5093:c24bc5e4:Wonder Boy III - Monster Lair - ARCADE.zip
6143:fa5a79f7:Donald in Maui Mallard SRAM.zip
5229:a1264f17:T2 - The Double Z Mod v1.13.2 [U] [h] [!] (RHDN).zip
5572:7e1a324a:Virtua Racing Genesis Mirror Mode.zip
7229:dea53d19:ROAD_RASH_Improvement_v1.1.7z
565:fbb92909:ShadowrunConversionMod.zip
7502:6771e9b660bde010cf28656cafb70f69249a3591:NHL-98_Patch-v1,2.zip
6974:45a50f96:Wonderboy 5 (MonsterWorld 3) (SRAM).zip
8149:bff227c6:Streets of Rage - Alternate Colors.zip
2937:59abe7f9:Xenon 2 Amiga colors v100.7z
7892:90fa1539:Alien Soldier Password SRAM v.1.zip
6644:51c80498:Waterworld (Better Controls).zip
6103:d2437bb7:Wolverine  - Adamantium Redux.zip
6614:44a2ca44:Sonic 3D Blast (UE) [!]easy mode.zip
4805:3ab44d46:Prince of Persia 2 - Remastered Edition by LinkueiBR v1-5.zip
6658:fbbb5b97:Landstalker (U) [!] - MIJET Controls patch.rar
7725:11ce1f9e:Michael Jackson's Moonwalker (W) (REV01) [!] (Visible Kids Hack).zip
7511:7204633fbb9966ac637e7966d02ba15c5acdee6b:NHL-96_Patch-v1,2.zip
7932:9cbf44d3:CliffhangerTASBugFix.zip
7932:eb5e0b28:CliffhangerTASBugFix.zip
6455:70ab775f:Spider-Man Vs Kingpin DX.zip
7794:cb2201a3:Super Hang-On SRAM .zip
5926:db41f2d5:Batman Eternity.zip
8110:710bc628:X-Men 2 - Clone Wars SRAM - Wall Warp.zip
7346:dc3c6c45:Sub-Terrania SRAM.zip
5889:49de0062:NBALive96HWC_Patch.zip
5204:48f1a42e:Eternal Champions - Special Edition v3.0.zip
8061:13fe08a1:Street Fighter II' - Special Champion Edition - Modern Tiger Knee.zip
2763:c8bb0257:TFHEXcolor.7z
5978:5c7e5ea6:The Revenge of Shinobi SRAM v2.zip
7297:4f2561d5:Ghouls n' Ghosts SRAM v1.1.zip
7275:512ade32:Venom . Spider-Man - Separation Anxiety SRAM.zip
5292:3044460c:Tom_and_Jerry_-_Frantic_Antics_(Improvement).7z
7235:184018f9:Hellfire MD2 Music Fix.zip
7485:55915915:Ranger-X SRAM.zip
4969:ede636b9:OutRunners Restoration.zip
7303:3e30d365:Bubsy SRAM.zip
4240:ee22ae12053928b652f9b9f513499181b01c8429:BattleTech - Operation REVIVAL v1.2.rar
4343:e812002daafb264fc2ab1dff9bd06ac2:Herzog Zwei (UE) [!] - Accessible.zip
883:e0594abe:SF1-CE.zip
772:c4748225:boasis.zip
7737:68c70362:Lemmings - Color Palette Hack.zip
7883:5bd0882d:truxtatsuv200.zip
5796:a3b00d6e:Alien 3 SRAM.zip
7553:df3acf59:Earthworm Jim SRAM.zip
2754:bd9eecf4:CE-PAL-Colors.7z
4270:3cb992c70b4a5880a3e5f89211f29fe90486c0e0:Slap Fight MD - Pink Bullet hack - (Japan).zip
1843:23f603f5:Zero Tolerance - Labyrinth Death.rar
6464:1a3da8c5:ATP Tour Championship Tennis 2022.zip
5948:634d67a6:Sound_Adjustments.zip
5184:2adb0364:Liberty or Death (US Mod).zip
6181:f5d7b948:Beavis and Butthead SRAM.zip
6588:ea342ed8:Judge Dredd Redux.zip
5972:cee98813:Jewel Master SRAM.zip
6243:5d09236f:Bare Knuckle III Hi-Score SRAM.zip
8267:9438f5dd:NHL 94 [h] 2024 AC v1.0 - 2023 12 01 - Patch.zip
5602:4820a161:SuperBubbleBobbleFix.zip
759:4eb4d5e4:RBI Baseball 94 for Genesis-Full Names.zip
4967:10fa248f:NBA_Jam_SRAM_Save.zip
8016:b1823595:Super Monaco GP (World En,Ja) GEN-MD IPS Enhanced Colors v1.32.zip
2920:2c708248:Twin Cobra and Kyuukyoku Tiger arcade gfx version 2.7z
2920:61276d21:Twin Cobra and Kyuukyoku Tiger arcade gfx version 2.7z
7385:c8620574:Bart Vs The Space Mutants Redux v1.3.zip
8221:fb1ea6df:Castlevania - Bloodlines SRAM.zip
727:1f07577f:IceAge_hack.zip
5902:24d7507c:Bart's Nightmare Redux.zip
4923:bef9a4f4:flink.zip
6338:1335ddaa:Super Hydlide (U) - Refined and Rebalanced.zip
2259:0cd09d31:SOTB _Patch.zip
8113:a6efec47:RKA-NoFlashing.zip
8021:1b1754cb:Fatal Fury 2 - Bosses Enabled In 1P.zip
4369:28014bdc:Pinocchio (Europe) (50 Hz Audio Fix) (Bug Fix).zip
8152:4ede0e75054655acab63f2a41b8c57e1cf137e58:Bram Stoker's Dracula - Invincibility Frames.zip
7348:bdba113e:Predator 2 SRAM.zip
5083:1c77ad21:New Zealand Story, The (J) - ARCADE.zip
7676:8641a2ab:Gain Ground Hi-Score SRAM.zip
6287:140a284c:The Lost World - Jurassic Park SRAM.zip
5347:4d2785bc:Shining in the Darkness.ips.7z
5347:c53e6786:Shining in the Darkness.ips.7z
5640:fe7a7ed1:Pac-Man 2 - The Arcade Games v1.4.0.zip
3598:f839a811:raiden-arcadegfx-v101.7z
2750:c511e8d2:USG-Colors.7z
7559:d57f8ba7:Earthworm Jim 2 SRAM v1.1.zip
5285:b389d036:FIFA Soccer 2020 (By TA Sports) v2,3 [06-30-2020] - Brazilian Version Ext001.rar
5285:b389d036:FIFA Soccer 2020 (By TA Sports) v2,3 [06-30-2020] - Brazilian Version Ext001.rar
7060:fdc80bfc:AAAHH!!! Real Monsters Improvement.zip
5745:a5d29735:Jungle Strike SRAM.zip
6417:c7862ea3:Golden Axe III Redux v.1.zip
6525:5ff71877:Demolition Man SRAM.zip
5491:b906b992:AFV MD v1.zip
2081:187c6af6:Midnight Resistance Pyron_CH_Patch.zip
2283:e0639ca2:CaptainAmerica_PyronEC.zip
5792:b36ab75c:Double Dragon 3 SRAM.zip
7987:79587507:Pac-Attack Hi-Score SRAM.rar
7489:53402b7c43cd20bf4cbaf40d1ba5062e3823f4bd:DDV_patch_(v1,0).zip
8191:b262a4c2738a499f070777dbe05e2629d211a107:Columns - Color Chaos.zip
6782:fb36e1f3:Phantom 2040 Password SRAM v2.zip
5757:4bd6667d:Mega Bomberman SRAM.zip
5749:cf690a75:Urban Strike SRAM.zip
6724:fbb1e120:WWF Raw - No More Tug of War.zip
1460:f4abedba:James Pond 2 Expert Edition.zip
2811:1e369ae2:wardnercolor.7z
2811:80f1035c:wardnercolor.7z
926:fe236442:ReConstruct_PSIV_v12.zip
6242:31b83d22:Splatterhouse 3 Bloody Edition (US, JP).zip
6242:7a5ec257:Splatterhouse 3 Bloody Edition (US, JP).zip
3401:7362c3f4:Toki colors.7z
3401:d09b1ef1:Toki colors.7z
4367:460037301df0d67947bd17eddb38a3011896cb43:Vixen 357 - Armored Warrior.rar
8022:ea1bc9ab:Sword of Vermilion - Invincibility Frames.zip
7112:665d7df9:golden-axe-32x-edition.zip
799:69d905751ffa6a921586767263e45ddeb73333c2:Probotector_(E)_Hit_Point_Restoration_Hack.zip
2131:24408c73:Thunder Pro Wrestling Retsuden Enhanced Colors.zip
8242:63522553:Sonic 3 Complete - Emerald Safari.zip
3102:725e0a18:Golden Axe II - Linkuei's Color Palete 1-0.zip
6496:aa021bdd:Toejam & Earl II Password SRAM v1.zip
2869:5377e96b4cb14038675c41d165f1d92ae067cd9b:Twinkle Tale Pyron_AS.zip
6674:7bb9dd9b:Scooby-Doo Mystery SRAM.zip
6934:5696a5bc:Kimba_the_White_Lion_(Leo_the_Lion).zip
2759:34fb7b27:Robocop3color.7z
8234:26f64b2a:jp3_lost.zip
3310:a2ec8c67:Twin Hawk - Daisenpuu arcade style gfx.7z
6798:5d8bf68b:Gaiares Redux v.1.zip
5730:17da0354:Comix Zone SRAM.zip
6246:13bdf374:SkyOrc.7z
6701:a39bf958:Wonder Boy - Asha in Monster World Title Screen Localization.rar
7284:9afea43ed627671b50dd4a2abdd043b235414b91:ROAD_RASH_2_Improvement_v1.2 SRAM.zip
7495:677206cb:SSSBE v1.0.7z
2888:813a7d62:Chiki AS_Pyron.zip
5869:86224d86:Animaniacs (Genesis) - Ground Action + Switch Speed Increase v1.1.zip
5869:92b6f255:Animaniacs (Genesis) - Ground Action + Switch Speed Increase v1.1.zip
5588:dd66b3fa:Aladdin~MD~Color_Hack~isolated_by_Crackowia.zip
5220:543a5869:Ultimate Superman v2.zip
6325:715158a9:Mighty Morphin Power Rangers VS Hack.zip
8006:1217dbea:Starflight (USA, Europe, Japan) (v1.1) - Enhanced Colors.zip
7850:ebe9ad10:SD Dol hack.zip
8201:e01fa526:Streets of Rage 2 Difficulty Randomizer.zip
3557:04ef4899:McDonald's Treasure Land Adventure Restoration.zip
3607:58d447ecd6a6af9845cdd90ac3df0b5503535117:Devil Crash PEC.zip
7969:a9e013d8:Mortal Kombat II color hack.zip
5346:b13087ee:Super-Thunder-Blade-DONUS.zip
6150:a26d3ae0:Tiny Toon Adventures - Buster's Hidden Treasure SRAM.zip
8058:4a4414ea:SXMAR_Reduced_Enemy_IFrames.zip
5895:d38b3354:Vectorman - Weapon Select.zip
2752:78c2f046:MegaSWIVcolor.7z
2707:154d59bb:Altered Beast with Arcade Voice Samples by Linkuei.zip
8255:74cee0a7:F1 - World Championship Edition (SRAM).zip
7777:fdd9a8d2:OutRun Hi-Score SRAM.zip
6578:af8f3371:Dragon Ball Z - Buu Yuu Retsuden (J) [!] (Shadow transparency).zip
4141:1da4b3fc92a6572e70d748ebad346aeb291f89f3:Adventures of Batman and Robin, The (Batadvantage).rar
6379:8fa0b6e6:Maximum Carnage SRAM.zip
7279:15785956:ROAD_RASH_3_Improvement_v1.03 SRAM.zip
4792:a704a1538fb4392e4631e96dce11eeff99d9b04a:BttF3-ColorFix.zip
4792:c808ee7f6f61c096ab73b68dd181e25fdcfde243:BttF3-ColorFix.zip
6090:2d965364:Ultimate Gargoyles v1.zip
5824:9fe71002:UEFA Champions League 2021 [J-League Pro Striker 2 Hack] (by TA Marcos Translations).rar
6620:62009f8c:Taz in Escape from Mars SRAM.zip
5508:1e7f41cc:Rock n' Roll Racing v16+Music Improvement.zip
5784:64fb13aa:Rolling Thunder SRAM.zip
8270:afe05eee:Smooth Rotating Bonus Stage.zip
8270:f9394e97:Smooth Rotating Bonus Stage.zip
8270:6382b2c5:Smooth Rotating Bonus Stage.zip
7765:e43e853d:Madagascar_Operation_Penguin.7z
6907:ea2e48c0:Frogger Genesis arcade colors.zip
2275:2dede3db:Shadow of the Beast 2 Color hack by Linkuei 1.5.zip
1064:0658f691:Sonic&KnucklesReversedFrequencies_v1.zip
1946:cfbf98c36c776677290a872547ac47c53d2761d6:Metal_Sonic_in_Sonic_3K.zip
406:4b680285:Warsong Graphics Hack.zip
5761:45547390:Ecco the Dolphin SRAM.zip
2775:aa941cbc:PRM_EC.zip
6558:33f19ab6:Mortal Kombat Arcade Edition v2-0-patch.zip
7490:ce36e6cc:Kid Chameleon Level Randomizer v1.1.zip
7375:ffa7ddd8ecf436daecf3628d52dfae6b522ed829:Batman - The Video Game SRAM.zip
4219:e19f7a02f140882e0364f11cd096aec712e56f83:Assault Suit Leynos - Reloaded.rar
7984:775bc464:Marble Madness Hi-Score SRAM.zip
3614:bf9ba3bc:FelixBlankScreen.zip
5789:caa044a1:Batman Revenge of The Joker SRAM.zip
2465:c49e3a0a:Vapor Trail EC v2.zip
7058:56512ee5:Red Zone (UE) [va0_fix].7z
7104:25b7b2aa:puyo2colormod_v2.zip
218:0b440fed:stormlord.zip
7694:c1a24088:Vectorman 2 Weapon Select + SRAM.zip
3973:e5c9cbb0:Space Harrier II Samples from the Arcade.zip
5639:f71b21b4:Ultimate X-Men v1.1.zip
8168:165defbf:SSF2_CPS1Sounds.zip
2276:85bcc1c7:JoeMac_PyronECv2.zip
7496:8a90d7921ab8380c0abb0b5515a6b9f96ca6023c:NHL-97_Patch-v1,2.zip
5770:1d8ee010:Lotus II POD Hack.zip
7710:ac30c297:Sunset Riders (USA) (Arcade Colors).zip
8184:26ad72719991e94dbe477c78e65d68f4a4fe51e6:Mega Man - The Wily Wars Double Jump.zip
5472:318ff3a44554b75260d5b9b9e7b81a3cfd07581a:mn_re.zip
678:070a1ceb:El Viento Enhancement.zip
8083:2f75e896:Terminator 2 - Judgment Day (UE) [!] - Music & Sound Hack by Segaman & VLD.7z
7506:3f440d3f:Cannon Fodder Password SRAM.zip
5865:8db9f378:Virtual Bart Redux v.1.zip
7582:2d0b20d0:Super Smash T.V. - Fastrom.zip
4869:40d11c94:Balanced Bosses.zip
7442:5617a42e:Yu Yu Hakusho Final - Makai Saikyou Retsuden (Jap) - Secret character unlocked.zip
7355:77d02030:if-halfSloth_v1.01.rar
6341:84da7cfe:Contra III - The Alien Wars (FastROM).7z
4481:5047e0d4:RockFMultipleEquipments001.zip
7677:4aafa462:LeGoofTroop.zip
4366:956b48f602a24dd3d5d64195f6366fa0b68f0738:Clue_USA_rng.zip
7800:a5c0045e:Secret of Evermore - Practice 1.2.0.zip
6517:b3ef81f5:Adventures of Batman & Robin, The (FastROM).7z
717:822ad378:pf_hiscore.zip
3576:b6dbf57b:ArabianNights(randombattle).zip
6471:b8e36f4afdfc0040dcde346291e1ce46d8718667:Pitfall 2600 SNES v1.0.zip
6355:393ccca2:Umihara Kawase Christmas Community Challenge.ips.zip
5465:d1048918:Kendo Rage (Player Sprites Restoration).rar
7667:266c44ed:Pilotwings - Fastrom.zip
4007:82de1380:Improvements for Super Fire Pro Wrestling X Premium.zip
7534:8aedd3a1:SimCity (U) - Fastrom v1.1.zip
2903:b6c1bf197ac5b85b6a691f5942783e6bfccfeb48:Dragon View (U) [bow-bosses].zip
4339:cbfde2d0:Dragon Ball Z - Super Butouden 3 Unlock All Characters.7z
4339:2bf7cd65:Dragon Ball Z - Super Butouden 3 Unlock All Characters.7z
4339:593eefe0:Dragon Ball Z - Super Butouden 3 Unlock All Characters.7z
7240:97727818:natsuki crisis.zip
6598:8ee7faa5:Dennis The Menace Redux.zip
5454:9fa74067:AoF_KingsDefeatRestoration_1.1.zip
5378:6c50c2cf:RSBokuno1.102.zip
8062:6d86bfb0:SSF2_E_Juggles.zip
4332:9c1f11e4:Super Bomberman 2 stage unlock.zip
4332:fb259f4f:Super Bomberman 2 stage unlock.zip
3321:73cf4163c3c2b3f8a38775a5d132c448:Dr Mario snes - no punish.zip
3321:bcc6f990c2befba0f8af1fe5db95b3ec:Dr Mario snes - no punish.zip
7763:cfc71e89:Prince of Persia (J) - Fastrom.zip
6699:34b11763d672df886789c428f7cf8a567876a57e:Mickey Mania - Camera Fix.7z
4647:3844a37927ae12d4077ee7188048b4cbb9958448:Samurai Shodown (boss blood).rar
6251:e2dd2f062d3b41f7550fdbc5f7e2b7d0c8ac684c:super bomberman 5 unlock stages.zip
6277:d34c49b7:top_gear_endurance.zip
7396:8fe49f80:Brutal - Paws of Fury (USA) - Secret character unlocked.zip
4815:54161830:SNSM J&S.zip
7952:7cfc0c7c:Vanilla ZAMN.zip
4567:36894cc3:shadow_proto_2_gfx_fix.zip
376:ef968ed1:sos_fix.zip
6607:b367d0b9:Super Back to the Future Part II FastROM.7z
6590:9fc62bcc:MS PAC-MAN NAMCO SNES v1.1.zip
839:5d8cb7ac:rnh_et_10b.rar
7239:69d9caa9:Tenchi Muyou! Game Hen (Chars enabled).zip
7022:acbcae7c:Super Star Wars-Jedi ReMaster (hack by Nintenja v1.0).7z
4507:98e2ac15:Alien 3 Assembly Cut v1_0.zip
5894:c0aecdca:Gundam Wing Epyon Duel Version 1.1.zip
6356:de144411:Final Fight Guy (Japan) FastROM.7z
6326:eceeb210a3df9b53697ad25332a72019e875698d:Wizard of Oz No Tickets Edition.zip
7588:1ecf28d5f3d2e84e3cc58ed621cb0fc0dd9d70d0:Wild Guns - Fastrom.zip
6476:63883e1e:0218_SRW4_TouhouAtrangers.zip
1055:d7875512:Genghis Khan II - Clan of the Gray Wolf.zip
6431:41fdba82:SNESCivImprovement.7z
5594:6aaba901:SGNG_maiden_plus.zip
4687:f4ede150b5281f7f5d7e3188c6d9163c2bc66475:Street Fighter Alpha 2 Minor Restoration.zip
4687:73b3c0af2f169423cbbf2a672e6414f35388e04e:Street Fighter Alpha 2 Minor Restoration.zip
8277:947b0355:Mega Man X2 - Xtra Power.zip
4102:18c356623ae0407119ceae8c06edfa7a:release.7z
6324:32eea1e9:Mickey to Donald - Magical Adventure 3 FastROM.7z
6605:3d4cbd28:Jurassic-Park-SRAM.zip
6605:77540cb9:Jurassic-Park-SRAM.zip
6605:77540cb9:Jurassic-Park-SRAM.zip
7634:8d4df815:Faceball 2000 - Fastrom.zip
7642:c49d28a4:Magical Pop'n (J) - Fastrom v1.1.zip
649:acfdb7b8:OBpatch.zip
404:8af25e7e:MM3_Per_Bugfix.zip
6154:13836bd2:Dragon Quest III better heroine sprite.rar
2618:83034d82:BS_F-Zero_GP1.zip
7627:27325e4d:Magic Sword - Fastrom.zip
458:ab48d27a:ttabugfix.zip
7066:bb9d8e56:Time Pilot hack.rar
7664:2b88bee8:Top Gear 2 (USA) -sound fix.zip
961:777aac2f:LinktothePastHairHacks.rar
843:b3abdde6:7th_saga_et_10.rar
835:20f2ac29:lufia2_et_10b.rar
5733:52fff0bf:Super Ninja Boy-Chinese World Easy Mode.zip
5733:6bcbba10:Super Ninja Boy-Chinese World Easy Mode.zip
614:6ba9e08d:Star Ocean 96Mbit patch - xdelta.zip
2804:6299fb1c:Hourai encounter reducer 70% overworld 33% dungeon.zip
737:4fd164d8:SS Euro edition.zip
6072:14d70786:tetris-attack-panel-de-pon-rivals-unlocked.zip
6072:6c128210:tetris-attack-panel-de-pon-rivals-unlocked.zip
921:52916c9d:schmuck fu.zip
5551:44b8e775:gemfiredawn_1_2.zip
5551:ee801a54:gemfiredawn_1_2.zip
2309:91a03035:pop'n twinbee rainbow bell adventures region fix.rar
6671:8c37ff55:final_fight_2_readjusted.zip
5397:cbcd0dad:Clock Tower Deluxe V2-0.zip
7374:e2fe5dbf:TMNT - Tournament Fighters (USA) - Cowabunga Edition.zip
840:37fe8126:pq_et_10.rar
7315:3ec2035962918b5523d8b4745406f46f2a739b8d:Squitter's Spider Quest.zip
7722:d7cd0b4f25652664e3aa8389e09c58937e5012fb:Hebereke's Popoitto Restoration.zip
935:6b19a2c6:mqr20.rar
4586:50ad3fe8:ontheballws.7z
353:845e420d:new12DuoXY.zip
5199:7120da2e:Liberty or Death SNES (US Mod).zip
5199:75e362a6:Liberty or Death SNES (US Mod).zip
4528:ddc03392f9e07eba675818bd231dad4af8c8c128:World Heroes (U) [geesus].rar
8158:61b26167:cosmo-puzz-double-rotate.zip
8011:3aa01dbd:Lost Vikings II, 3P, 1.03.zip
3496:6f7d1745:Smash Tennis (Europe).zip
993:2d206bf7:Chrono Trigger Impossible.zip
4473:a4e97dd3589749f355cfab8f436bbe30a19df8dd:WH2 easy moves.rar
7647:82479d6a:Legend of the Mystical Ninja, The - Fastrom.zip
892:65d0a825:FF4_LR_Fix.rar
5316:dd792499:HashireHebereke_SNES_RegionLockoutRemoval.zip
6807:b360f7af:UltraClayFighter.zip
7440:a26ebfef:Fatal Fury 2 (USA) - Secret characters unlocked.zip
3079:fa698c31:HomeImprovement_MorePower.zip
8181:522fe837:Thunder Spirits - Fastrom v1.1.zip
7956:24ffe7fd:Dragon's Lair (USA) FastROM Patches.zip
7430:bc955f3b:DQ5 - 4 Party Members.7z
8155:24f628d669757b5c92d6c8788dbfcb1d1aeb0481:Hook SNES (Genki Hack).rar
6664:dfe9cc90:SRW3_Milder.zip
6653:694be8df403ee59225c4b6b53c30fb7b:shadowrun_mouse.zip
6653:5c0746237abeacfa10088be8cd724257:shadowrun_mouse.zip
6653:c3dac1984c06eee0f9889667f83dc869:shadowrun_mouse.zip
6653:cd22a7ff4908575f2fe5bd9f1e34ffc8:shadowrun_mouse.zip
6653:88bb1aa84cae4a4d4154689d72777a86:shadowrun_mouse.zip
834:5e1aa1a6:lufia1_et_08b.rar
990:cd80db86:SMKAT2.zip
2639:a40a3089:bs_smc.zip
7092:80a856dba0f12fd1e9eded75d219b854910e990f:power rangers bosses story.zip
7479:1c847e70:FDT.zip
5286:ec8a48f6:Dream Land 3 - Momentum Patch.zip
5287:db71bf4a:Minor Color Fixes For SFPW.zip
4155:4e6af725:Mortal Kombat 3 - Redux.zip
4155:ca3ceb0a:Mortal Kombat 3 - Redux.zip
7728:c788b696:ElementalResurgence_v100.zip
3389:ac995ab6f5667be14eb6471458e491d3:The Firemen (Europe) NTSC patch.zip
7867:dc0d8cf9:Genealogy of the Perambulation 4.1.zip
919:b8a72553:Wizardry-Story-of-Llylgamyn-Rebalanced-v1.0.zip
919:16ffe85a:Wizardry-Story-of-Llylgamyn-Rebalanced-v1.0.zip
7052:1664ae48:Kid Kleets Camera Fix.7z
6659:59490ce8:Yoshi's Safari (Joypad Version).7z
5529:10f7bb5592e128cc17c5c2a564f6c681785227ed:Fighter's History (bosses).rar
8183:47e4e75a914021839dcd29b2709dc91978932a8c:Weaponlord (U) (E) - Fastrom.zip
6520:93f778af:Minor Color Fixes For SFPW3  - Easy Type.zip
7384:bc3dcd9d:Street Fighter II (USA) - Allow same character selection, championship mode alternate colors.zip
8245:63ce5132:drmario-sfc-te-v03.zip
848:c788b696:bof2_et_10.rar
4216:764b5d62a235eb5e8915aaa3cbfaa3bdade516dd:yoshis-cookie-title-screen.zip
888:fa0fe671:MMX3ZP.zip
888:fa0fe671:MMX3ZP.zip
8101:1b8a0625:Mario RPG ReGoogled patches.zip
7533:2f551e67:Bust-A-Move AS 2023.zip
7533:3266fd23:Bust-A-Move AS 2023.zip
7643:8fb5ac86:Rendering Ranger R2 - Fastrom v1.1.zip
7669:63a8e2c6:Super Bomberman - No Walk Sounds.zip
6693:585d33b1:cs-v1.1.ips.zip
744:11202781:sa_music.zip
8182:e8236ad2:Demon's Crest Restoration.zip
6240:c469f8f0:jim power.zip
6240:35aae4eb:jim power.zip
7923:d43bc5a3:Street Fighter II Turbo (USA) (10 Turbo Stars Enabled Hack) by Hostmaster.zip
7923:a45cadd6:Street Fighter II Turbo (USA) (10 Turbo Stars Enabled Hack) by Hostmaster.zip
878:d63ed5f8:SM Ph 0.3.rar
8203:ade7b968:Dragon Ball Z - Super Saiya Densetsu - Double XP.zip
906:8f1a772c:SMB3JDamage.zip
906:f71f12e0:SMB3JDamage.zip
906:232bb5b8:SMB3JDamage.zip
5408:5f1d73d7:Last Bible III Estoma.zip
7668:1c058b7d:Ballz 3D - Fastrom.zip
4334:3bbaeb19:Super Bomberman 4 (Japan) unlock stages.zip
972:2d947536:MM7.zip
7740:d138f224:Yoshi's Island SFC Controller Palette.zip
7802:f2ab92d4:Metal_Warriors_InfCon.zip
6723:f829129e:Harvest Moon - DayTimeExtended.zip
4069:e5423eb6:Captain Commando - Arcade Edition [v1.2].rar
4069:81db73c7:Captain Commando - Arcade Edition [v1.2].rar
4069:5b9aa73a:Captain Commando - Arcade Edition [v1.2].rar
8007:ce90286b:JDC_IoG Beta Sprint Button-v100d.zip
7377:4901f718:ActRaiser2-GodlyMaster-V1.zip
7658:3bc037b6:The Ninja Warriors Again (J) - Fastrom.zip
4338:a5e37609:Dragon Ball Z - Super Butouden 2 Unlock All Characters.7z
4338:081fde86:Dragon Ball Z - Super Butouden 2 Unlock All Characters.7z
7403:98a96ae8:Double Dragon V - The Shadow Falls (USA) - Secret characters unlocked.zip
8198:8fc4e6d0:Starfox Randomizer v1.2.zip
6712:f84305b1:Super Mario All-Stars + World - No Music Edition.zip
6565:8c2068d1:SpikeMcFang Uniblonde.7z
6706:b64ffb12:PracticeROM_v2.6.7z
6640:10874c70:The Magical Quest Starring Mickey Mouse FastROM v1-0.zip
4333:a096a6e5:Super Bomberman 3 stage unlock.zip
4333:9ecb0fe6:Super Bomberman 3 stage unlock.zip
6490:5dc6b9fe:T2 - Arcade Remix v1.zip
4707:c17ecba5:wiz6-no-rerolling.zip
6166:93075f16701c734ebc369eabf61ec5216f86d9c5:NBA Jam 2k22 - Tournament Edition v1.28.1.2 [U] [h] [x].ips.zip
995:ea1dc87ecb3ba90bbfb8c122f8ee23ca426f5991:SwordTechReadyStance11.7z
8019:978dc1ca:Minor Color Fixes For SFPW3  - Final Bout.zip
7254:1899aaff:Boogerman Camera Fix.7z
5049:2e8034ab:The Addams Family - Afterlife Edition.zip
7940:d0176b24:SOMClimateCrisis1.11.zip
6716:ef878419:tsuyoshi-boss.zip
7838:74f70a0b:Brandish_JPNArtMusicRestore.zip
4806:5f03e04ce7bca88f8c2c11934056a3a67bfb319b:Duke's Theme Restored.zip
4650:bcac87c7a982d8eb90cbf30a6c34fbabde135ff7:Red Blood For Blackthorne.zip
4650:f7b38c81596973336e72cf4b8a5c575e23ded515:Red Blood For Blackthorne.zip
4650:27eb4c70ecda592a0473aa8c68b424ff0ccb7413:Red Blood For Blackthorne.zip
7012:a567957c:The Death and Return of Superman-Resurrection (3 different versions)(hack by Nintenja v1.0-2022).7z
4215:7e59c9457829ed3f0fbd9cd0ceeb3432a4739e98:mega_mans_soccer_restored.zip
4215:8d9ba291a86a3588823d8ced0f28742b5754c789:mega_mans_soccer_restored.zip
7203:b64ad1b7c388439a53549229375d53dfb29731d0:ClayfighterII (bosses).zip
907:9055814b1782cadd538c78ae773826b8:smt1auto.zip
907:2da54797ddf350a71e170110553ed8a5:smt1auto.zip
4498:25440331:smfs1.67.zip
6249:7acf2ac6:WaterworldSoundFix.zip
5675:b50503a0:Mega Man Arkanoid (1.1 - bug fixes).zip
957:c1bc267d:Final Fantasy 5 Ancient Cave.zip
3832:91ff16da242d39736aead4d360bf6bf7c0afce82:tmzero_date_unlocker.zip
7644:dc90a8ab:Phalanx - Fastrom.zip
684:974523ff:ter8x16.rar
8246:23670c9e:Puzzle_Nintama_Rantarou-hidden_char_unlock.zip
8082:0d2b95a8:AST Hero Mode.zip
8082:1b71a609:AST Hero Mode.zip
8082:c251d4fa:AST Hero Mode.zip
8082:8385bbf4:AST Hero Mode.zip
900:ded53c64:mmx1_debugmenu.zip
7755:8a4a174f:SGB1 Disable Game Enhancements.zip
3875:a8c26fa9951d764d958fcb1beebe5089:6-1 fix.7z
3875:b96f969d7a5be96151331f04d7cb36d2:6-1 fix.7z
7682:cd973979:Gradius 3 FastRom v1.2.zip
4812:def42945:Mortal Kombat Champion Edition (U) V2_0.zip
6733:588a9707:Pop'n TwinBee Color Blind Mod.rar
7508:98bb6853:DQ1to2_adjust.zip
537:f6aa5291759e982ea249c4b76f729ca2f4ab1cf4:MK2_HIDDEN.ZIP
7525:448eec19:DKC3 Free Roam (U).zip
5561:2a0baa6b:NameStatFix.zip
5561:8033574a:NameStatFix.zip
107:f8c2024a:d4s_dynamitracer_sram_fix.zip
7649:38c9626c:Mario Paint - Fastrom.zip
6804:2d3b9662:Maui Mallard in Cold Shadow (Camera Delay Hack).7z
6828:239d2862:SA1 Demonstration Program (Unknown) [SA1 header fix].zip
6374:e3ef6201:Mighty Morphin Power Rangers - The Movie (FastROM).7z
845:c891b297:arcana_et_10.rar
6415:21e658b8:Kirby's Avalanche - Rewritten (v1.1).zip
4003:eb3943bd:Shadowhawk _Stereo+Bugfixes_v1_Redguy_ SmokeMonster.zip
3203:e455607b32b0adf14bf4af917cbf6561eccd1d0d:Tetris Battle Gaiden (bosses).zip
2634:8f85a235:BS_smb_USA.zip
6519:8fac5efd:Minor Color Fixes For SFPW2.zip
6954:7681efc1:Sup-Zero 2.zip
6501:a5db02e9:Macross Scrambled Valkyrie Plus SRAM 1.0b.zip
6336:216f2fc7:Eek! The Cat - Color Enhancement 1.1.rar
6336:812555a3:Eek! The Cat - Color Enhancement 1.1.rar
7106:6b915b24:Final Fantasy CII RK sprites port v1.0.zip
849:feb80589:ma_et_10b.rar
984:239621a0:EX(hard).zip
719:81107ce2:pd_hiscore.zip
7638:380c2635:Stunt Race FX (Rev 1) - Fastrom.zip
6918:02a442b8:MoonHealingOrchestration_v101.zip
3685:8113ef06dc16bf570463636094df30c9593b2db9:Fatal Fury Special (Easy+ryo).zip
893:c946dca0:dkc_-_the_kremlings_revenge.zip
6700:7ca0ca4d:powd_readjusted.zip
7561:4cab21db:Final Fight - Fastrom.zip
7388:d2554270:Lagoon camera fix [001].zip
3031:f182eb75f21e46e516cbb6e6bef0324724bc0f04:Sanrio World Smash Ball!_tournament_v1.zip
3031:cd10c2542df4579be57d5033a980dbf6e2c1547e:Sanrio World Smash Ball!_tournament_v1.zip
6504:5e34822a:X-Men - Mutant Apocaylpse SRAM.zip
5921:7a313722:NoMoreHeberekesPopoonVoices.zip
5023:98b07db8:Addams Family Values - The Gauntlet (Afterlife Edtion).zip
974:544f00bc:SMW The Lost Adventure Episode I REMASTERED.zip
7898:0a20e602:ISSDPlus_PB4.zip
1623:b1774f03700dfc311bfd86411db629c3:mariowariopad.zip
8035:bc1c4134:Final Fight 3 (U) - Tough Edition 1.0.zip
8035:a916e708:Final Fight 3 (U) - Tough Edition 1.0.zip
7141:4d2ce16f:GOD_EasyMode_v100.zip
7141:6fc6af26:GOD_EasyMode_v100.zip
7064:3604c855790f37db567e9b425252625045f86697:Super Punch-Out!! (bosses).zip
7645:dcd46848:Super Adventure Island - Fastrom.zip
8229:dfd6385d:GCD - Brightness Fix.rar
6815:28fcb0acd1c02ada4e81fc84552b8ff1eea79420:Akumajou Dracula XX (Japan)_walkanim_crowpal.zip
7170:c0573974:Starfox 2 60fps.zip
7170:87653732:Starfox 2 60fps.zip
5453:252c1da7:Killer Instinct - Eyedol Edition Deluxe.7z
4855:b1a104e6:Zenkoku Juudan Ultra Shinri Game Music Bugfix.ips.zip
8258:dc9bb451:Earthbound - Double XP.zip
5490:8feb111d20551fd056faaff6f6eae2977bacc115:Super F1 Circus 2 - Ayrton Senna Name (ft. Jean Alesi).zip
6322:124d8e4d:Aladdin - FastROM.7z
7219:a427b7e6:biraku_Headered1.1.zip
6734:89d0f7dc:Kirby Super Star Samurai Lag Fix.zip
4162:cb249cf7301bdd985e6fe4bc4c942bf4f86d7d83:uniracers_uncensored.zip
7751:cb176e45:Disable Game Enhancements.zip
3430:920a738e:Heracles no Eikou IV - text speed.7z
7262:df8153d9:kdc-vertshot.zip
7262:995cc0a3:kdc-vertshot.zip
7262:2a24fc9b:kdc-vertshot.zip
7944:cd2150c8:J.R.R. Tolkien's The Lord of the Rings - Volume 1 FastROM Patches.zip
7944:247c17d3:J.R.R. Tolkien's The Lord of the Rings - Volume 1 FastROM Patches.zip
7944:8b172b4e:J.R.R. Tolkien's The Lord of the Rings - Volume 1 FastROM Patches.zip
3835:3daf41fdcfbcb8ce2c6ce1cf814e8a5c:20182501.7z
6537:d062c7ff:BSZM2_V95_RH_NET.zip
5676:231f0f67:area88_en_plus103v2.zip
5676:06388f71:area88_en_plus103v2.zip
5063:fc519952:Super Thracia English Menus.zip
5703:162252e2:NMWCR_AyrtonSennaRestoration_1.1.zip
7162:736b9b994f506de0893ceb181f942739da089b05:Cybie's Basics v1.0.0.zip
7398:e1f96f63603f4d899ec8e29975d0cdf0170cde73:Home Alone SRAM.zip
